{
  "contractName": "ConditionalEscrow",
  "abi": [
    {
      "anonymous": false,
      "inputs": [
        {
          "indexed": true,
          "internalType": "address",
          "name": "payee",
          "type": "address"
        },
        {
          "indexed": false,
          "internalType": "uint256",
          "name": "weiAmount",
          "type": "uint256"
        }
      ],
      "name": "Deposited",
      "type": "event"
    },
    {
      "anonymous": false,
      "inputs": [
        {
          "indexed": true,
          "internalType": "address",
          "name": "previousOwner",
          "type": "address"
        },
        {
          "indexed": true,
          "internalType": "address",
          "name": "newOwner",
          "type": "address"
        }
      ],
      "name": "OwnershipTransferred",
      "type": "event"
    },
    {
      "anonymous": false,
      "inputs": [
        {
          "indexed": true,
          "internalType": "address",
          "name": "payee",
          "type": "address"
        },
        {
          "indexed": false,
          "internalType": "uint256",
          "name": "weiAmount",
          "type": "uint256"
        }
      ],
      "name": "Withdrawn",
      "type": "event"
    },
    {
      "inputs": [
        {
          "internalType": "address",
          "name": "payee",
          "type": "address"
        }
      ],
      "name": "deposit",
      "outputs": [],
      "stateMutability": "payable",
      "type": "function"
    },
    {
      "inputs": [
        {
          "internalType": "address",
          "name": "payee",
          "type": "address"
        }
      ],
      "name": "depositsOf",
      "outputs": [
        {
          "internalType": "uint256",
          "name": "",
          "type": "uint256"
        }
      ],
      "stateMutability": "view",
      "type": "function"
    },
    {
      "inputs": [],
      "name": "owner",
      "outputs": [
        {
          "internalType": "address",
          "name": "",
          "type": "address"
        }
      ],
      "stateMutability": "view",
      "type": "function"
    },
    {
      "inputs": [],
      "name": "renounceOwnership",
      "outputs": [],
      "stateMutability": "nonpayable",
      "type": "function"
    },
    {
      "inputs": [
        {
          "internalType": "address",
          "name": "newOwner",
          "type": "address"
        }
      ],
      "name": "transferOwnership",
      "outputs": [],
      "stateMutability": "nonpayable",
      "type": "function"
    },
    {
      "inputs": [
        {
          "internalType": "address",
          "name": "payee",
          "type": "address"
        }
      ],
      "name": "withdrawalAllowed",
      "outputs": [
        {
          "internalType": "bool",
          "name": "",
          "type": "bool"
        }
      ],
      "stateMutability": "view",
      "type": "function"
    },
    {
      "inputs": [
        {
          "internalType": "address payable",
          "name": "payee",
          "type": "address"
        }
      ],
      "name": "withdraw",
      "outputs": [],
      "stateMutability": "nonpayable",
      "type": "function"
    }
  ],
  "metadata": "{\"compiler\":{\"version\":\"0.8.2+commit.661d1103\"},\"language\":\"Solidity\",\"output\":{\"abi\":[{\"anonymous\":false,\"inputs\":[{\"indexed\":true,\"internalType\":\"address\",\"name\":\"payee\",\"type\":\"address\"},{\"indexed\":false,\"internalType\":\"uint256\",\"name\":\"weiAmount\",\"type\":\"uint256\"}],\"name\":\"Deposited\",\"type\":\"event\"},{\"anonymous\":false,\"inputs\":[{\"indexed\":true,\"internalType\":\"address\",\"name\":\"previousOwner\",\"type\":\"address\"},{\"indexed\":true,\"internalType\":\"address\",\"name\":\"newOwner\",\"type\":\"address\"}],\"name\":\"OwnershipTransferred\",\"type\":\"event\"},{\"anonymous\":false,\"inputs\":[{\"indexed\":true,\"internalType\":\"address\",\"name\":\"payee\",\"type\":\"address\"},{\"indexed\":false,\"internalType\":\"uint256\",\"name\":\"weiAmount\",\"type\":\"uint256\"}],\"name\":\"Withdrawn\",\"type\":\"event\"},{\"inputs\":[{\"internalType\":\"address\",\"name\":\"payee\",\"type\":\"address\"}],\"name\":\"deposit\",\"outputs\":[],\"stateMutability\":\"payable\",\"type\":\"function\"},{\"inputs\":[{\"internalType\":\"address\",\"name\":\"payee\",\"type\":\"address\"}],\"name\":\"depositsOf\",\"outputs\":[{\"internalType\":\"uint256\",\"name\":\"\",\"type\":\"uint256\"}],\"stateMutability\":\"view\",\"type\":\"function\"},{\"inputs\":[],\"name\":\"owner\",\"outputs\":[{\"internalType\":\"address\",\"name\":\"\",\"type\":\"address\"}],\"stateMutability\":\"view\",\"type\":\"function\"},{\"inputs\":[],\"name\":\"renounceOwnership\",\"outputs\":[],\"stateMutability\":\"nonpayable\",\"type\":\"function\"},{\"inputs\":[{\"internalType\":\"address\",\"name\":\"newOwner\",\"type\":\"address\"}],\"name\":\"transferOwnership\",\"outputs\":[],\"stateMutability\":\"nonpayable\",\"type\":\"function\"},{\"inputs\":[{\"internalType\":\"address payable\",\"name\":\"payee\",\"type\":\"address\"}],\"name\":\"withdraw\",\"outputs\":[],\"stateMutability\":\"nonpayable\",\"type\":\"function\"},{\"inputs\":[{\"internalType\":\"address\",\"name\":\"payee\",\"type\":\"address\"}],\"name\":\"withdrawalAllowed\",\"outputs\":[{\"internalType\":\"bool\",\"name\":\"\",\"type\":\"bool\"}],\"stateMutability\":\"view\",\"type\":\"function\"}],\"devdoc\":{\"details\":\"Base abstract escrow to only allow withdrawal if a condition is met.Intended usage: See {Escrow}. Same usage guidelines apply here.\",\"kind\":\"dev\",\"methods\":{\"deposit(address)\":{\"details\":\"Stores the sent amount as credit to be withdrawn.\",\"params\":{\"payee\":\"The destination address of the funds.\"}},\"owner()\":{\"details\":\"Returns the address of the current owner.\"},\"renounceOwnership()\":{\"details\":\"Leaves the contract without owner. It will not be possible to call `onlyOwner` functions anymore. Can only be called by the current owner. NOTE: Renouncing ownership will leave the contract without an owner, thereby removing any functionality that is only available to the owner.\"},\"transferOwnership(address)\":{\"details\":\"Transfers ownership of the contract to a new account (`newOwner`). Can only be called by the current owner.\"},\"withdraw(address)\":{\"details\":\"Withdraw accumulated balance for a payee, forwarding all gas to the recipient. WARNING: Forwarding all gas opens the door to reentrancy vulnerabilities. Make sure you trust the recipient, or are either following the checks-effects-interactions pattern or using {ReentrancyGuard}.\",\"params\":{\"payee\":\"The address whose funds will be withdrawn and transferred to.\"}},\"withdrawalAllowed(address)\":{\"details\":\"Returns whether an address is allowed to withdraw their funds. To be implemented by derived contracts.\",\"params\":{\"payee\":\"The destination address of the funds.\"}}},\"title\":\"ConditionalEscrow\",\"version\":1},\"userdoc\":{\"kind\":\"user\",\"methods\":{},\"version\":1}},\"settings\":{\"compilationTarget\":{\"project:/contracts/openzeppelin/contracts/utils/escrow/ConditionalEscrow.sol\":\"ConditionalEscrow\"},\"evmVersion\":\"istanbul\",\"libraries\":{},\"metadata\":{\"bytecodeHash\":\"ipfs\"},\"optimizer\":{\"enabled\":false,\"runs\":200},\"remappings\":[]},\"sources\":{\"project:/contracts/openzeppelin/contracts/access/Ownable.sol\":{\"keccak256\":\"0x6bb804a310218875e89d12c053e94a13a4607cdf7cc2052f3e52bd32a0dc50a1\",\"license\":\"MIT\",\"urls\":[\"bzz-raw://b2ebbbe6d0011175bd9e7268b83de3f9c2f9d8d4cbfbaef12aff977d7d727163\",\"dweb:/ipfs/Qmd5c7Vxtis9wzkDNhxwc6A2QT5H9xn9kfjhx7qx44vpro\"]},\"project:/contracts/openzeppelin/contracts/utils/Address.sol\":{\"keccak256\":\"0x3336baae5cf23e94274d75336e2d412193be508504aee185e61dc7d58cd05c8a\",\"license\":\"MIT\",\"urls\":[\"bzz-raw://39a05eec7083dfa0cc7e0cbfe6cd1bd085a340af1ede93fdff3ad047c5fb3d8e\",\"dweb:/ipfs/QmVApz5fCUq2QC8gKTsNNdCmcedJ3ETHp68zR5N3WUKS4r\"]},\"project:/contracts/openzeppelin/contracts/utils/Context.sol\":{\"keccak256\":\"0x90565a39ae45c80f0468dc96c7b20d0afc3055f344c8203a0c9258239f350b9f\",\"license\":\"MIT\",\"urls\":[\"bzz-raw://26e8b38a7ac8e7b4463af00cf7fff1bf48ae9875765bf4f7751e100124d0bc8c\",\"dweb:/ipfs/QmWcsmkVr24xmmjfnBQZoemFniXjj3vwT78Cz6uqZW1Hux\"]},\"project:/contracts/openzeppelin/contracts/utils/escrow/ConditionalEscrow.sol\":{\"keccak256\":\"0x0bf0f9c9bfdea4be5d7dc3f1fccf177de0a5e7da51f96bfe5923af8ad1961a39\",\"license\":\"MIT\",\"urls\":[\"bzz-raw://475920b50f6082a8d87a140cc5528bfc98c1f3efb8e2c367f93a1e482cea24a6\",\"dweb:/ipfs/QmVEUrKPdy3vgPjjzsikKLETUBFRo6uKbrgn2zeaJt7Mcu\"]},\"project:/contracts/openzeppelin/contracts/utils/escrow/Escrow.sol\":{\"keccak256\":\"0xaf3f0d87fb0237dc255183be425f45fc902b343494d8a083878eb615211cc789\",\"license\":\"MIT\",\"urls\":[\"bzz-raw://271399b7a3f92a81525320ccb879999cfd58cd5ce9f7e1cc29c995fc494bd08f\",\"dweb:/ipfs/QmNoB7sWcRJyJLwDeXttzKcxdUzZAKij4oAZUgcBAGZawj\"]}},\"version\":1}",
  "bytecode": "0x",
  "deployedBytecode": "0x",
  "immutableReferences": {},
  "generatedSources": [],
  "deployedGeneratedSources": [],
  "sourceMap": "",
  "deployedSourceMap": "",
  "source": "// SPDX-License-Identifier: MIT\n\npragma solidity ^0.8.0;\n\nimport \"./Escrow.sol\";\n\n/**\n * @title ConditionalEscrow\n * @dev Base abstract escrow to only allow withdrawal if a condition is met.\n * @dev Intended usage: See {Escrow}. Same usage guidelines apply here.\n */\nabstract contract ConditionalEscrow is Escrow {\n    /**\n     * @dev Returns whether an address is allowed to withdraw their funds. To be\n     * implemented by derived contracts.\n     * @param payee The destination address of the funds.\n     */\n    function withdrawalAllowed(address payee) public view virtual returns (bool);\n\n    function withdraw(address payable payee) public virtual override {\n        require(withdrawalAllowed(payee), \"ConditionalEscrow: payee is not allowed to withdraw\");\n        super.withdraw(payee);\n    }\n}\n",
  "sourcePath": "/home/sushant/Documents/blockchain_work/EatTheBlock/ecomapp2/contracts/openzeppelin/contracts/utils/escrow/ConditionalEscrow.sol",
  "ast": {
    "absolutePath": "project:/contracts/openzeppelin/contracts/utils/escrow/ConditionalEscrow.sol",
    "exportedSymbols": {
      "Address": [
        23619
      ],
      "ConditionalEscrow": [
        25133
      ],
      "Context": [
        23726
      ],
      "Escrow": [
        25229
      ],
      "Ownable": [
        1482
      ]
    },
    "id": 25134,
    "license": "MIT",
    "nodeType": "SourceUnit",
    "nodes": [
      {
        "id": 25100,
        "literals": [
          "solidity",
          "^",
          "0.8",
          ".0"
        ],
        "nodeType": "PragmaDirective",
        "src": "33:23:206"
      },
      {
        "absolutePath": "project:/contracts/openzeppelin/contracts/utils/escrow/Escrow.sol",
        "file": "./Escrow.sol",
        "id": 25101,
        "nameLocation": "-1:-1:-1",
        "nodeType": "ImportDirective",
        "scope": 25134,
        "sourceUnit": 25230,
        "src": "58:22:206",
        "symbolAliases": [],
        "unitAlias": ""
      },
      {
        "abstract": true,
        "baseContracts": [
          {
            "baseName": {
              "id": 25103,
              "name": "Escrow",
              "nodeType": "IdentifierPath",
              "referencedDeclaration": 25229,
              "src": "306:6:206"
            },
            "id": 25104,
            "nodeType": "InheritanceSpecifier",
            "src": "306:6:206"
          }
        ],
        "contractDependencies": [
          1482,
          23726,
          25229
        ],
        "contractKind": "contract",
        "documentation": {
          "id": 25102,
          "nodeType": "StructuredDocumentation",
          "src": "82:184:206",
          "text": " @title ConditionalEscrow\n @dev Base abstract escrow to only allow withdrawal if a condition is met.\n @dev Intended usage: See {Escrow}. Same usage guidelines apply here."
        },
        "fullyImplemented": false,
        "id": 25133,
        "linearizedBaseContracts": [
          25133,
          25229,
          1482,
          23726
        ],
        "name": "ConditionalEscrow",
        "nameLocation": "285:17:206",
        "nodeType": "ContractDefinition",
        "nodes": [
          {
            "documentation": {
              "id": 25105,
              "nodeType": "StructuredDocumentation",
              "src": "319:191:206",
              "text": " @dev Returns whether an address is allowed to withdraw their funds. To be\n implemented by derived contracts.\n @param payee The destination address of the funds."
            },
            "functionSelector": "685ca194",
            "id": 25112,
            "implemented": false,
            "kind": "function",
            "modifiers": [],
            "name": "withdrawalAllowed",
            "nameLocation": "524:17:206",
            "nodeType": "FunctionDefinition",
            "parameters": {
              "id": 25108,
              "nodeType": "ParameterList",
              "parameters": [
                {
                  "constant": false,
                  "id": 25107,
                  "mutability": "mutable",
                  "name": "payee",
                  "nameLocation": "550:5:206",
                  "nodeType": "VariableDeclaration",
                  "scope": 25112,
                  "src": "542:13:206",
                  "stateVariable": false,
                  "storageLocation": "default",
                  "typeDescriptions": {
                    "typeIdentifier": "t_address",
                    "typeString": "address"
                  },
                  "typeName": {
                    "id": 25106,
                    "name": "address",
                    "nodeType": "ElementaryTypeName",
                    "src": "542:7:206",
                    "stateMutability": "nonpayable",
                    "typeDescriptions": {
                      "typeIdentifier": "t_address",
                      "typeString": "address"
                    }
                  },
                  "visibility": "internal"
                }
              ],
              "src": "541:15:206"
            },
            "returnParameters": {
              "id": 25111,
              "nodeType": "ParameterList",
              "parameters": [
                {
                  "constant": false,
                  "id": 25110,
                  "mutability": "mutable",
                  "name": "",
                  "nameLocation": "-1:-1:-1",
                  "nodeType": "VariableDeclaration",
                  "scope": 25112,
                  "src": "586:4:206",
                  "stateVariable": false,
                  "storageLocation": "default",
                  "typeDescriptions": {
                    "typeIdentifier": "t_bool",
                    "typeString": "bool"
                  },
                  "typeName": {
                    "id": 25109,
                    "name": "bool",
                    "nodeType": "ElementaryTypeName",
                    "src": "586:4:206",
                    "typeDescriptions": {
                      "typeIdentifier": "t_bool",
                      "typeString": "bool"
                    }
                  },
                  "visibility": "internal"
                }
              ],
              "src": "585:6:206"
            },
            "scope": 25133,
            "src": "515:77:206",
            "stateMutability": "view",
            "virtual": true,
            "visibility": "public"
          },
          {
            "baseFunctions": [
              25228
            ],
            "body": {
              "id": 25131,
              "nodeType": "Block",
              "src": "663:136:206",
              "statements": [
                {
                  "expression": {
                    "arguments": [
                      {
                        "arguments": [
                          {
                            "id": 25120,
                            "name": "payee",
                            "nodeType": "Identifier",
                            "overloadedDeclarations": [],
                            "referencedDeclaration": 25114,
                            "src": "699:5:206",
                            "typeDescriptions": {
                              "typeIdentifier": "t_address_payable",
                              "typeString": "address payable"
                            }
                          }
                        ],
                        "expression": {
                          "argumentTypes": [
                            {
                              "typeIdentifier": "t_address_payable",
                              "typeString": "address payable"
                            }
                          ],
                          "id": 25119,
                          "name": "withdrawalAllowed",
                          "nodeType": "Identifier",
                          "overloadedDeclarations": [],
                          "referencedDeclaration": 25112,
                          "src": "681:17:206",
                          "typeDescriptions": {
                            "typeIdentifier": "t_function_internal_view$_t_address_$returns$_t_bool_$",
                            "typeString": "function (address) view returns (bool)"
                          }
                        },
                        "id": 25121,
                        "isConstant": false,
                        "isLValue": false,
                        "isPure": false,
                        "kind": "functionCall",
                        "lValueRequested": false,
                        "names": [],
                        "nodeType": "FunctionCall",
                        "src": "681:24:206",
                        "tryCall": false,
                        "typeDescriptions": {
                          "typeIdentifier": "t_bool",
                          "typeString": "bool"
                        }
                      },
                      {
                        "hexValue": "436f6e646974696f6e616c457363726f773a207061796565206973206e6f7420616c6c6f77656420746f207769746864726177",
                        "id": 25122,
                        "isConstant": false,
                        "isLValue": false,
                        "isPure": true,
                        "kind": "string",
                        "lValueRequested": false,
                        "nodeType": "Literal",
                        "src": "707:53:206",
                        "typeDescriptions": {
                          "typeIdentifier": "t_stringliteral_8ab85541a5cdc1a44c30d5b8b58432efbc37ed9be825439a16d2e39ce610814a",
                          "typeString": "literal_string \"ConditionalEscrow: payee is not allowed to withdraw\""
                        },
                        "value": "ConditionalEscrow: payee is not allowed to withdraw"
                      }
                    ],
                    "expression": {
                      "argumentTypes": [
                        {
                          "typeIdentifier": "t_bool",
                          "typeString": "bool"
                        },
                        {
                          "typeIdentifier": "t_stringliteral_8ab85541a5cdc1a44c30d5b8b58432efbc37ed9be825439a16d2e39ce610814a",
                          "typeString": "literal_string \"ConditionalEscrow: payee is not allowed to withdraw\""
                        }
                      ],
                      "id": 25118,
                      "name": "require",
                      "nodeType": "Identifier",
                      "overloadedDeclarations": [
                        4294967278,
                        4294967278
                      ],
                      "referencedDeclaration": 4294967278,
                      "src": "673:7:206",
                      "typeDescriptions": {
                        "typeIdentifier": "t_function_require_pure$_t_bool_$_t_string_memory_ptr_$returns$__$",
                        "typeString": "function (bool,string memory) pure"
                      }
                    },
                    "id": 25123,
                    "isConstant": false,
                    "isLValue": false,
                    "isPure": false,
                    "kind": "functionCall",
                    "lValueRequested": false,
                    "names": [],
                    "nodeType": "FunctionCall",
                    "src": "673:88:206",
                    "tryCall": false,
                    "typeDescriptions": {
                      "typeIdentifier": "t_tuple$__$",
                      "typeString": "tuple()"
                    }
                  },
                  "id": 25124,
                  "nodeType": "ExpressionStatement",
                  "src": "673:88:206"
                },
                {
                  "expression": {
                    "arguments": [
                      {
                        "id": 25128,
                        "name": "payee",
                        "nodeType": "Identifier",
                        "overloadedDeclarations": [],
                        "referencedDeclaration": 25114,
                        "src": "786:5:206",
                        "typeDescriptions": {
                          "typeIdentifier": "t_address_payable",
                          "typeString": "address payable"
                        }
                      }
                    ],
                    "expression": {
                      "argumentTypes": [
                        {
                          "typeIdentifier": "t_address_payable",
                          "typeString": "address payable"
                        }
                      ],
                      "expression": {
                        "id": 25125,
                        "name": "super",
                        "nodeType": "Identifier",
                        "overloadedDeclarations": [],
                        "referencedDeclaration": 4294967271,
                        "src": "771:5:206",
                        "typeDescriptions": {
                          "typeIdentifier": "t_type$_t_super$_ConditionalEscrow_$25133_$",
                          "typeString": "type(contract super ConditionalEscrow)"
                        }
                      },
                      "id": 25127,
                      "isConstant": false,
                      "isLValue": false,
                      "isPure": false,
                      "lValueRequested": false,
                      "memberName": "withdraw",
                      "nodeType": "MemberAccess",
                      "referencedDeclaration": 25228,
                      "src": "771:14:206",
                      "typeDescriptions": {
                        "typeIdentifier": "t_function_internal_nonpayable$_t_address_payable_$returns$__$",
                        "typeString": "function (address payable)"
                      }
                    },
                    "id": 25129,
                    "isConstant": false,
                    "isLValue": false,
                    "isPure": false,
                    "kind": "functionCall",
                    "lValueRequested": false,
                    "names": [],
                    "nodeType": "FunctionCall",
                    "src": "771:21:206",
                    "tryCall": false,
                    "typeDescriptions": {
                      "typeIdentifier": "t_tuple$__$",
                      "typeString": "tuple()"
                    }
                  },
                  "id": 25130,
                  "nodeType": "ExpressionStatement",
                  "src": "771:21:206"
                }
              ]
            },
            "functionSelector": "51cff8d9",
            "id": 25132,
            "implemented": true,
            "kind": "function",
            "modifiers": [],
            "name": "withdraw",
            "nameLocation": "607:8:206",
            "nodeType": "FunctionDefinition",
            "overrides": {
              "id": 25116,
              "nodeType": "OverrideSpecifier",
              "overrides": [],
              "src": "654:8:206"
            },
            "parameters": {
              "id": 25115,
              "nodeType": "ParameterList",
              "parameters": [
                {
                  "constant": false,
                  "id": 25114,
                  "mutability": "mutable",
                  "name": "payee",
                  "nameLocation": "632:5:206",
                  "nodeType": "VariableDeclaration",
                  "scope": 25132,
                  "src": "616:21:206",
                  "stateVariable": false,
                  "storageLocation": "default",
                  "typeDescriptions": {
                    "typeIdentifier": "t_address_payable",
                    "typeString": "address payable"
                  },
                  "typeName": {
                    "id": 25113,
                    "name": "address",
                    "nodeType": "ElementaryTypeName",
                    "src": "616:15:206",
                    "stateMutability": "payable",
                    "typeDescriptions": {
                      "typeIdentifier": "t_address_payable",
                      "typeString": "address payable"
                    }
                  },
                  "visibility": "internal"
                }
              ],
              "src": "615:23:206"
            },
            "returnParameters": {
              "id": 25117,
              "nodeType": "ParameterList",
              "parameters": [],
              "src": "663:0:206"
            },
            "scope": 25133,
            "src": "598:201:206",
            "stateMutability": "nonpayable",
            "virtual": true,
            "visibility": "public"
          }
        ],
        "scope": 25134,
        "src": "267:534:206"
      }
    ],
    "src": "33:769:206"
  },
  "legacyAST": {
    "absolutePath": "project:/contracts/openzeppelin/contracts/utils/escrow/ConditionalEscrow.sol",
    "exportedSymbols": {
      "Address": [
        23619
      ],
      "ConditionalEscrow": [
        25133
      ],
      "Context": [
        23726
      ],
      "Escrow": [
        25229
      ],
      "Ownable": [
        1482
      ]
    },
    "id": 25134,
    "license": "MIT",
    "nodeType": "SourceUnit",
    "nodes": [
      {
        "id": 25100,
        "literals": [
          "solidity",
          "^",
          "0.8",
          ".0"
        ],
        "nodeType": "PragmaDirective",
        "src": "33:23:206"
      },
      {
        "absolutePath": "project:/contracts/openzeppelin/contracts/utils/escrow/Escrow.sol",
        "file": "./Escrow.sol",
        "id": 25101,
        "nameLocation": "-1:-1:-1",
        "nodeType": "ImportDirective",
        "scope": 25134,
        "sourceUnit": 25230,
        "src": "58:22:206",
        "symbolAliases": [],
        "unitAlias": ""
      },
      {
        "abstract": true,
        "baseContracts": [
          {
            "baseName": {
              "id": 25103,
              "name": "Escrow",
              "nodeType": "IdentifierPath",
              "referencedDeclaration": 25229,
              "src": "306:6:206"
            },
            "id": 25104,
            "nodeType": "InheritanceSpecifier",
            "src": "306:6:206"
          }
        ],
        "contractDependencies": [
          1482,
          23726,
          25229
        ],
        "contractKind": "contract",
        "documentation": {
          "id": 25102,
          "nodeType": "StructuredDocumentation",
          "src": "82:184:206",
          "text": " @title ConditionalEscrow\n @dev Base abstract escrow to only allow withdrawal if a condition is met.\n @dev Intended usage: See {Escrow}. Same usage guidelines apply here."
        },
        "fullyImplemented": false,
        "id": 25133,
        "linearizedBaseContracts": [
          25133,
          25229,
          1482,
          23726
        ],
        "name": "ConditionalEscrow",
        "nameLocation": "285:17:206",
        "nodeType": "ContractDefinition",
        "nodes": [
          {
            "documentation": {
              "id": 25105,
              "nodeType": "StructuredDocumentation",
              "src": "319:191:206",
              "text": " @dev Returns whether an address is allowed to withdraw their funds. To be\n implemented by derived contracts.\n @param payee The destination address of the funds."
            },
            "functionSelector": "685ca194",
            "id": 25112,
            "implemented": false,
            "kind": "function",
            "modifiers": [],
            "name": "withdrawalAllowed",
            "nameLocation": "524:17:206",
            "nodeType": "FunctionDefinition",
            "parameters": {
              "id": 25108,
              "nodeType": "ParameterList",
              "parameters": [
                {
                  "constant": false,
                  "id": 25107,
                  "mutability": "mutable",
                  "name": "payee",
                  "nameLocation": "550:5:206",
                  "nodeType": "VariableDeclaration",
                  "scope": 25112,
                  "src": "542:13:206",
                  "stateVariable": false,
                  "storageLocation": "default",
                  "typeDescriptions": {
                    "typeIdentifier": "t_address",
                    "typeString": "address"
                  },
                  "typeName": {
                    "id": 25106,
                    "name": "address",
                    "nodeType": "ElementaryTypeName",
                    "src": "542:7:206",
                    "stateMutability": "nonpayable",
                    "typeDescriptions": {
                      "typeIdentifier": "t_address",
                      "typeString": "address"
                    }
                  },
                  "visibility": "internal"
                }
              ],
              "src": "541:15:206"
            },
            "returnParameters": {
              "id": 25111,
              "nodeType": "ParameterList",
              "parameters": [
                {
                  "constant": false,
                  "id": 25110,
                  "mutability": "mutable",
                  "name": "",
                  "nameLocation": "-1:-1:-1",
                  "nodeType": "VariableDeclaration",
                  "scope": 25112,
                  "src": "586:4:206",
                  "stateVariable": false,
                  "storageLocation": "default",
                  "typeDescriptions": {
                    "typeIdentifier": "t_bool",
                    "typeString": "bool"
                  },
                  "typeName": {
                    "id": 25109,
                    "name": "bool",
                    "nodeType": "ElementaryTypeName",
                    "src": "586:4:206",
                    "typeDescriptions": {
                      "typeIdentifier": "t_bool",
                      "typeString": "bool"
                    }
                  },
                  "visibility": "internal"
                }
              ],
              "src": "585:6:206"
            },
            "scope": 25133,
            "src": "515:77:206",
            "stateMutability": "view",
            "virtual": true,
            "visibility": "public"
          },
          {
            "baseFunctions": [
              25228
            ],
            "body": {
              "id": 25131,
              "nodeType": "Block",
              "src": "663:136:206",
              "statements": [
                {
                  "expression": {
                    "arguments": [
                      {
                        "arguments": [
                          {
                            "id": 25120,
                            "name": "payee",
                            "nodeType": "Identifier",
                            "overloadedDeclarations": [],
                            "referencedDeclaration": 25114,
                            "src": "699:5:206",
                            "typeDescriptions": {
                              "typeIdentifier": "t_address_payable",
                              "typeString": "address payable"
                            }
                          }
                        ],
                        "expression": {
                          "argumentTypes": [
                            {
                              "typeIdentifier": "t_address_payable",
                              "typeString": "address payable"
                            }
                          ],
                          "id": 25119,
                          "name": "withdrawalAllowed",
                          "nodeType": "Identifier",
                          "overloadedDeclarations": [],
                          "referencedDeclaration": 25112,
                          "src": "681:17:206",
                          "typeDescriptions": {
                            "typeIdentifier": "t_function_internal_view$_t_address_$returns$_t_bool_$",
                            "typeString": "function (address) view returns (bool)"
                          }
                        },
                        "id": 25121,
                        "isConstant": false,
                        "isLValue": false,
                        "isPure": false,
                        "kind": "functionCall",
                        "lValueRequested": false,
                        "names": [],
                        "nodeType": "FunctionCall",
                        "src": "681:24:206",
                        "tryCall": false,
                        "typeDescriptions": {
                          "typeIdentifier": "t_bool",
                          "typeString": "bool"
                        }
                      },
                      {
                        "hexValue": "436f6e646974696f6e616c457363726f773a207061796565206973206e6f7420616c6c6f77656420746f207769746864726177",
                        "id": 25122,
                        "isConstant": false,
                        "isLValue": false,
                        "isPure": true,
                        "kind": "string",
                        "lValueRequested": false,
                        "nodeType": "Literal",
                        "src": "707:53:206",
                        "typeDescriptions": {
                          "typeIdentifier": "t_stringliteral_8ab85541a5cdc1a44c30d5b8b58432efbc37ed9be825439a16d2e39ce610814a",
                          "typeString": "literal_string \"ConditionalEscrow: payee is not allowed to withdraw\""
                        },
                        "value": "ConditionalEscrow: payee is not allowed to withdraw"
                      }
                    ],
                    "expression": {
                      "argumentTypes": [
                        {
                          "typeIdentifier": "t_bool",
                          "typeString": "bool"
                        },
                        {
                          "typeIdentifier": "t_stringliteral_8ab85541a5cdc1a44c30d5b8b58432efbc37ed9be825439a16d2e39ce610814a",
                          "typeString": "literal_string \"ConditionalEscrow: payee is not allowed to withdraw\""
                        }
                      ],
                      "id": 25118,
                      "name": "require",
                      "nodeType": "Identifier",
                      "overloadedDeclarations": [
                        4294967278,
                        4294967278
                      ],
                      "referencedDeclaration": 4294967278,
                      "src": "673:7:206",
                      "typeDescriptions": {
                        "typeIdentifier": "t_function_require_pure$_t_bool_$_t_string_memory_ptr_$returns$__$",
                        "typeString": "function (bool,string memory) pure"
                      }
                    },
                    "id": 25123,
                    "isConstant": false,
                    "isLValue": false,
                    "isPure": false,
                    "kind": "functionCall",
                    "lValueRequested": false,
                    "names": [],
                    "nodeType": "FunctionCall",
                    "src": "673:88:206",
                    "tryCall": false,
                    "typeDescriptions": {
                      "typeIdentifier": "t_tuple$__$",
                      "typeString": "tuple()"
                    }
                  },
                  "id": 25124,
                  "nodeType": "ExpressionStatement",
                  "src": "673:88:206"
                },
                {
                  "expression": {
                    "arguments": [
                      {
                        "id": 25128,
                        "name": "payee",
                        "nodeType": "Identifier",
                        "overloadedDeclarations": [],
                        "referencedDeclaration": 25114,
                        "src": "786:5:206",
                        "typeDescriptions": {
                          "typeIdentifier": "t_address_payable",
                          "typeString": "address payable"
                        }
                      }
                    ],
                    "expression": {
                      "argumentTypes": [
                        {
                          "typeIdentifier": "t_address_payable",
                          "typeString": "address payable"
                        }
                      ],
                      "expression": {
                        "id": 25125,
                        "name": "super",
                        "nodeType": "Identifier",
                        "overloadedDeclarations": [],
                        "referencedDeclaration": 4294967271,
                        "src": "771:5:206",
                        "typeDescriptions": {
                          "typeIdentifier": "t_type$_t_super$_ConditionalEscrow_$25133_$",
                          "typeString": "type(contract super ConditionalEscrow)"
                        }
                      },
                      "id": 25127,
                      "isConstant": false,
                      "isLValue": false,
                      "isPure": false,
                      "lValueRequested": false,
                      "memberName": "withdraw",
                      "nodeType": "MemberAccess",
                      "referencedDeclaration": 25228,
                      "src": "771:14:206",
                      "typeDescriptions": {
                        "typeIdentifier": "t_function_internal_nonpayable$_t_address_payable_$returns$__$",
                        "typeString": "function (address payable)"
                      }
                    },
                    "id": 25129,
                    "isConstant": false,
                    "isLValue": false,
                    "isPure": false,
                    "kind": "functionCall",
                    "lValueRequested": false,
                    "names": [],
                    "nodeType": "FunctionCall",
                    "src": "771:21:206",
                    "tryCall": false,
                    "typeDescriptions": {
                      "typeIdentifier": "t_tuple$__$",
                      "typeString": "tuple()"
                    }
                  },
                  "id": 25130,
                  "nodeType": "ExpressionStatement",
                  "src": "771:21:206"
                }
              ]
            },
            "functionSelector": "51cff8d9",
            "id": 25132,
            "implemented": true,
            "kind": "function",
            "modifiers": [],
            "name": "withdraw",
            "nameLocation": "607:8:206",
            "nodeType": "FunctionDefinition",
            "overrides": {
              "id": 25116,
              "nodeType": "OverrideSpecifier",
              "overrides": [],
              "src": "654:8:206"
            },
            "parameters": {
              "id": 25115,
              "nodeType": "ParameterList",
              "parameters": [
                {
                  "constant": false,
                  "id": 25114,
                  "mutability": "mutable",
                  "name": "payee",
                  "nameLocation": "632:5:206",
                  "nodeType": "VariableDeclaration",
                  "scope": 25132,
                  "src": "616:21:206",
                  "stateVariable": false,
                  "storageLocation": "default",
                  "typeDescriptions": {
                    "typeIdentifier": "t_address_payable",
                    "typeString": "address payable"
                  },
                  "typeName": {
                    "id": 25113,
                    "name": "address",
                    "nodeType": "ElementaryTypeName",
                    "src": "616:15:206",
                    "stateMutability": "payable",
                    "typeDescriptions": {
                      "typeIdentifier": "t_address_payable",
                      "typeString": "address payable"
                    }
                  },
                  "visibility": "internal"
                }
              ],
              "src": "615:23:206"
            },
            "returnParameters": {
              "id": 25117,
              "nodeType": "ParameterList",
              "parameters": [],
              "src": "663:0:206"
            },
            "scope": 25133,
            "src": "598:201:206",
            "stateMutability": "nonpayable",
            "virtual": true,
            "visibility": "public"
          }
        ],
        "scope": 25134,
        "src": "267:534:206"
      }
    ],
    "src": "33:769:206"
  },
  "compiler": {
    "name": "solc",
    "version": "0.8.2+commit.661d1103.Emscripten.clang"
  },
  "networks": {},
  "schemaVersion": "3.4.2",
  "updatedAt": "2021-08-10T13:44:21.362Z",
  "devdoc": {
    "details": "Base abstract escrow to only allow withdrawal if a condition is met.Intended usage: See {Escrow}. Same usage guidelines apply here.",
    "kind": "dev",
    "methods": {
      "deposit(address)": {
        "details": "Stores the sent amount as credit to be withdrawn.",
        "params": {
          "payee": "The destination address of the funds."
        }
      },
      "owner()": {
        "details": "Returns the address of the current owner."
      },
      "renounceOwnership()": {
        "details": "Leaves the contract without owner. It will not be possible to call `onlyOwner` functions anymore. Can only be called by the current owner. NOTE: Renouncing ownership will leave the contract without an owner, thereby removing any functionality that is only available to the owner."
      },
      "transferOwnership(address)": {
        "details": "Transfers ownership of the contract to a new account (`newOwner`). Can only be called by the current owner."
      },
      "withdraw(address)": {
        "details": "Withdraw accumulated balance for a payee, forwarding all gas to the recipient. WARNING: Forwarding all gas opens the door to reentrancy vulnerabilities. Make sure you trust the recipient, or are either following the checks-effects-interactions pattern or using {ReentrancyGuard}.",
        "params": {
          "payee": "The address whose funds will be withdrawn and transferred to."
        }
      },
      "withdrawalAllowed(address)": {
        "details": "Returns whether an address is allowed to withdraw their funds. To be implemented by derived contracts.",
        "params": {
          "payee": "The destination address of the funds."
        }
      }
    },
    "title": "ConditionalEscrow",
    "version": 1
  },
  "userdoc": {
    "kind": "user",
    "methods": {},
    "version": 1
  }
}