{
  "contractName": "GovernorVotes",
  "abi": [
    {
      "anonymous": false,
      "inputs": [
        {
          "indexed": false,
          "internalType": "uint256",
          "name": "proposalId",
          "type": "uint256"
        }
      ],
      "name": "ProposalCanceled",
      "type": "event"
    },
    {
      "anonymous": false,
      "inputs": [
        {
          "indexed": false,
          "internalType": "uint256",
          "name": "proposalId",
          "type": "uint256"
        },
        {
          "indexed": false,
          "internalType": "address",
          "name": "proposer",
          "type": "address"
        },
        {
          "indexed": false,
          "internalType": "address[]",
          "name": "targets",
          "type": "address[]"
        },
        {
          "indexed": false,
          "internalType": "uint256[]",
          "name": "values",
          "type": "uint256[]"
        },
        {
          "indexed": false,
          "internalType": "string[]",
          "name": "signatures",
          "type": "string[]"
        },
        {
          "indexed": false,
          "internalType": "bytes[]",
          "name": "calldatas",
          "type": "bytes[]"
        },
        {
          "indexed": false,
          "internalType": "uint256",
          "name": "startBlock",
          "type": "uint256"
        },
        {
          "indexed": false,
          "internalType": "uint256",
          "name": "endBlock",
          "type": "uint256"
        },
        {
          "indexed": false,
          "internalType": "string",
          "name": "description",
          "type": "string"
        }
      ],
      "name": "ProposalCreated",
      "type": "event"
    },
    {
      "anonymous": false,
      "inputs": [
        {
          "indexed": false,
          "internalType": "uint256",
          "name": "proposalId",
          "type": "uint256"
        }
      ],
      "name": "ProposalExecuted",
      "type": "event"
    },
    {
      "anonymous": false,
      "inputs": [
        {
          "indexed": true,
          "internalType": "address",
          "name": "voter",
          "type": "address"
        },
        {
          "indexed": false,
          "internalType": "uint256",
          "name": "proposalId",
          "type": "uint256"
        },
        {
          "indexed": false,
          "internalType": "uint8",
          "name": "support",
          "type": "uint8"
        },
        {
          "indexed": false,
          "internalType": "uint256",
          "name": "weight",
          "type": "uint256"
        },
        {
          "indexed": false,
          "internalType": "string",
          "name": "reason",
          "type": "string"
        }
      ],
      "name": "VoteCast",
      "type": "event"
    },
    {
      "inputs": [],
      "name": "BALLOT_TYPEHASH",
      "outputs": [
        {
          "internalType": "bytes32",
          "name": "",
          "type": "bytes32"
        }
      ],
      "stateMutability": "view",
      "type": "function"
    },
    {
      "inputs": [],
      "name": "COUNTING_MODE",
      "outputs": [
        {
          "internalType": "string",
          "name": "",
          "type": "string"
        }
      ],
      "stateMutability": "pure",
      "type": "function"
    },
    {
      "inputs": [
        {
          "internalType": "uint256",
          "name": "proposalId",
          "type": "uint256"
        },
        {
          "internalType": "uint8",
          "name": "support",
          "type": "uint8"
        }
      ],
      "name": "castVote",
      "outputs": [
        {
          "internalType": "uint256",
          "name": "",
          "type": "uint256"
        }
      ],
      "stateMutability": "nonpayable",
      "type": "function"
    },
    {
      "inputs": [
        {
          "internalType": "uint256",
          "name": "proposalId",
          "type": "uint256"
        },
        {
          "internalType": "uint8",
          "name": "support",
          "type": "uint8"
        },
        {
          "internalType": "uint8",
          "name": "v",
          "type": "uint8"
        },
        {
          "internalType": "bytes32",
          "name": "r",
          "type": "bytes32"
        },
        {
          "internalType": "bytes32",
          "name": "s",
          "type": "bytes32"
        }
      ],
      "name": "castVoteBySig",
      "outputs": [
        {
          "internalType": "uint256",
          "name": "",
          "type": "uint256"
        }
      ],
      "stateMutability": "nonpayable",
      "type": "function"
    },
    {
      "inputs": [
        {
          "internalType": "uint256",
          "name": "proposalId",
          "type": "uint256"
        },
        {
          "internalType": "uint8",
          "name": "support",
          "type": "uint8"
        },
        {
          "internalType": "string",
          "name": "reason",
          "type": "string"
        }
      ],
      "name": "castVoteWithReason",
      "outputs": [
        {
          "internalType": "uint256",
          "name": "",
          "type": "uint256"
        }
      ],
      "stateMutability": "nonpayable",
      "type": "function"
    },
    {
      "inputs": [
        {
          "internalType": "address[]",
          "name": "targets",
          "type": "address[]"
        },
        {
          "internalType": "uint256[]",
          "name": "values",
          "type": "uint256[]"
        },
        {
          "internalType": "bytes[]",
          "name": "calldatas",
          "type": "bytes[]"
        },
        {
          "internalType": "bytes32",
          "name": "descriptionHash",
          "type": "bytes32"
        }
      ],
      "name": "execute",
      "outputs": [
        {
          "internalType": "uint256",
          "name": "",
          "type": "uint256"
        }
      ],
      "stateMutability": "payable",
      "type": "function"
    },
    {
      "inputs": [
        {
          "internalType": "uint256",
          "name": "proposalId",
          "type": "uint256"
        },
        {
          "internalType": "address",
          "name": "account",
          "type": "address"
        }
      ],
      "name": "hasVoted",
      "outputs": [
        {
          "internalType": "bool",
          "name": "",
          "type": "bool"
        }
      ],
      "stateMutability": "view",
      "type": "function"
    },
    {
      "inputs": [
        {
          "internalType": "address[]",
          "name": "targets",
          "type": "address[]"
        },
        {
          "internalType": "uint256[]",
          "name": "values",
          "type": "uint256[]"
        },
        {
          "internalType": "bytes[]",
          "name": "calldatas",
          "type": "bytes[]"
        },
        {
          "internalType": "bytes32",
          "name": "descriptionHash",
          "type": "bytes32"
        }
      ],
      "name": "hashProposal",
      "outputs": [
        {
          "internalType": "uint256",
          "name": "",
          "type": "uint256"
        }
      ],
      "stateMutability": "pure",
      "type": "function"
    },
    {
      "inputs": [],
      "name": "name",
      "outputs": [
        {
          "internalType": "string",
          "name": "",
          "type": "string"
        }
      ],
      "stateMutability": "view",
      "type": "function"
    },
    {
      "inputs": [
        {
          "internalType": "uint256",
          "name": "proposalId",
          "type": "uint256"
        }
      ],
      "name": "proposalDeadline",
      "outputs": [
        {
          "internalType": "uint256",
          "name": "",
          "type": "uint256"
        }
      ],
      "stateMutability": "view",
      "type": "function"
    },
    {
      "inputs": [
        {
          "internalType": "uint256",
          "name": "proposalId",
          "type": "uint256"
        }
      ],
      "name": "proposalSnapshot",
      "outputs": [
        {
          "internalType": "uint256",
          "name": "",
          "type": "uint256"
        }
      ],
      "stateMutability": "view",
      "type": "function"
    },
    {
      "inputs": [
        {
          "internalType": "address[]",
          "name": "targets",
          "type": "address[]"
        },
        {
          "internalType": "uint256[]",
          "name": "values",
          "type": "uint256[]"
        },
        {
          "internalType": "bytes[]",
          "name": "calldatas",
          "type": "bytes[]"
        },
        {
          "internalType": "string",
          "name": "description",
          "type": "string"
        }
      ],
      "name": "propose",
      "outputs": [
        {
          "internalType": "uint256",
          "name": "",
          "type": "uint256"
        }
      ],
      "stateMutability": "nonpayable",
      "type": "function"
    },
    {
      "inputs": [
        {
          "internalType": "uint256",
          "name": "blockNumber",
          "type": "uint256"
        }
      ],
      "name": "quorum",
      "outputs": [
        {
          "internalType": "uint256",
          "name": "",
          "type": "uint256"
        }
      ],
      "stateMutability": "view",
      "type": "function"
    },
    {
      "inputs": [
        {
          "internalType": "uint256",
          "name": "proposalId",
          "type": "uint256"
        }
      ],
      "name": "state",
      "outputs": [
        {
          "internalType": "enum IGovernor.ProposalState",
          "name": "",
          "type": "uint8"
        }
      ],
      "stateMutability": "view",
      "type": "function"
    },
    {
      "inputs": [
        {
          "internalType": "bytes4",
          "name": "interfaceId",
          "type": "bytes4"
        }
      ],
      "name": "supportsInterface",
      "outputs": [
        {
          "internalType": "bool",
          "name": "",
          "type": "bool"
        }
      ],
      "stateMutability": "view",
      "type": "function"
    },
    {
      "inputs": [],
      "name": "token",
      "outputs": [
        {
          "internalType": "contract ERC20Votes",
          "name": "",
          "type": "address"
        }
      ],
      "stateMutability": "view",
      "type": "function"
    },
    {
      "inputs": [],
      "name": "version",
      "outputs": [
        {
          "internalType": "string",
          "name": "",
          "type": "string"
        }
      ],
      "stateMutability": "view",
      "type": "function"
    },
    {
      "inputs": [],
      "name": "votingDelay",
      "outputs": [
        {
          "internalType": "uint256",
          "name": "",
          "type": "uint256"
        }
      ],
      "stateMutability": "view",
      "type": "function"
    },
    {
      "inputs": [],
      "name": "votingPeriod",
      "outputs": [
        {
          "internalType": "uint256",
          "name": "",
          "type": "uint256"
        }
      ],
      "stateMutability": "view",
      "type": "function"
    },
    {
      "inputs": [
        {
          "internalType": "address",
          "name": "account",
          "type": "address"
        },
        {
          "internalType": "uint256",
          "name": "blockNumber",
          "type": "uint256"
        }
      ],
      "name": "getVotes",
      "outputs": [
        {
          "internalType": "uint256",
          "name": "",
          "type": "uint256"
        }
      ],
      "stateMutability": "view",
      "type": "function"
    }
  ],
  "metadata": "{\"compiler\":{\"version\":\"0.8.2+commit.661d1103\"},\"language\":\"Solidity\",\"output\":{\"abi\":[{\"anonymous\":false,\"inputs\":[{\"indexed\":false,\"internalType\":\"uint256\",\"name\":\"proposalId\",\"type\":\"uint256\"}],\"name\":\"ProposalCanceled\",\"type\":\"event\"},{\"anonymous\":false,\"inputs\":[{\"indexed\":false,\"internalType\":\"uint256\",\"name\":\"proposalId\",\"type\":\"uint256\"},{\"indexed\":false,\"internalType\":\"address\",\"name\":\"proposer\",\"type\":\"address\"},{\"indexed\":false,\"internalType\":\"address[]\",\"name\":\"targets\",\"type\":\"address[]\"},{\"indexed\":false,\"internalType\":\"uint256[]\",\"name\":\"values\",\"type\":\"uint256[]\"},{\"indexed\":false,\"internalType\":\"string[]\",\"name\":\"signatures\",\"type\":\"string[]\"},{\"indexed\":false,\"internalType\":\"bytes[]\",\"name\":\"calldatas\",\"type\":\"bytes[]\"},{\"indexed\":false,\"internalType\":\"uint256\",\"name\":\"startBlock\",\"type\":\"uint256\"},{\"indexed\":false,\"internalType\":\"uint256\",\"name\":\"endBlock\",\"type\":\"uint256\"},{\"indexed\":false,\"internalType\":\"string\",\"name\":\"description\",\"type\":\"string\"}],\"name\":\"ProposalCreated\",\"type\":\"event\"},{\"anonymous\":false,\"inputs\":[{\"indexed\":false,\"internalType\":\"uint256\",\"name\":\"proposalId\",\"type\":\"uint256\"}],\"name\":\"ProposalExecuted\",\"type\":\"event\"},{\"anonymous\":false,\"inputs\":[{\"indexed\":true,\"internalType\":\"address\",\"name\":\"voter\",\"type\":\"address\"},{\"indexed\":false,\"internalType\":\"uint256\",\"name\":\"proposalId\",\"type\":\"uint256\"},{\"indexed\":false,\"internalType\":\"uint8\",\"name\":\"support\",\"type\":\"uint8\"},{\"indexed\":false,\"internalType\":\"uint256\",\"name\":\"weight\",\"type\":\"uint256\"},{\"indexed\":false,\"internalType\":\"string\",\"name\":\"reason\",\"type\":\"string\"}],\"name\":\"VoteCast\",\"type\":\"event\"},{\"inputs\":[],\"name\":\"BALLOT_TYPEHASH\",\"outputs\":[{\"internalType\":\"bytes32\",\"name\":\"\",\"type\":\"bytes32\"}],\"stateMutability\":\"view\",\"type\":\"function\"},{\"inputs\":[],\"name\":\"COUNTING_MODE\",\"outputs\":[{\"internalType\":\"string\",\"name\":\"\",\"type\":\"string\"}],\"stateMutability\":\"pure\",\"type\":\"function\"},{\"inputs\":[{\"internalType\":\"uint256\",\"name\":\"proposalId\",\"type\":\"uint256\"},{\"internalType\":\"uint8\",\"name\":\"support\",\"type\":\"uint8\"}],\"name\":\"castVote\",\"outputs\":[{\"internalType\":\"uint256\",\"name\":\"\",\"type\":\"uint256\"}],\"stateMutability\":\"nonpayable\",\"type\":\"function\"},{\"inputs\":[{\"internalType\":\"uint256\",\"name\":\"proposalId\",\"type\":\"uint256\"},{\"internalType\":\"uint8\",\"name\":\"support\",\"type\":\"uint8\"},{\"internalType\":\"uint8\",\"name\":\"v\",\"type\":\"uint8\"},{\"internalType\":\"bytes32\",\"name\":\"r\",\"type\":\"bytes32\"},{\"internalType\":\"bytes32\",\"name\":\"s\",\"type\":\"bytes32\"}],\"name\":\"castVoteBySig\",\"outputs\":[{\"internalType\":\"uint256\",\"name\":\"\",\"type\":\"uint256\"}],\"stateMutability\":\"nonpayable\",\"type\":\"function\"},{\"inputs\":[{\"internalType\":\"uint256\",\"name\":\"proposalId\",\"type\":\"uint256\"},{\"internalType\":\"uint8\",\"name\":\"support\",\"type\":\"uint8\"},{\"internalType\":\"string\",\"name\":\"reason\",\"type\":\"string\"}],\"name\":\"castVoteWithReason\",\"outputs\":[{\"internalType\":\"uint256\",\"name\":\"\",\"type\":\"uint256\"}],\"stateMutability\":\"nonpayable\",\"type\":\"function\"},{\"inputs\":[{\"internalType\":\"address[]\",\"name\":\"targets\",\"type\":\"address[]\"},{\"internalType\":\"uint256[]\",\"name\":\"values\",\"type\":\"uint256[]\"},{\"internalType\":\"bytes[]\",\"name\":\"calldatas\",\"type\":\"bytes[]\"},{\"internalType\":\"bytes32\",\"name\":\"descriptionHash\",\"type\":\"bytes32\"}],\"name\":\"execute\",\"outputs\":[{\"internalType\":\"uint256\",\"name\":\"\",\"type\":\"uint256\"}],\"stateMutability\":\"payable\",\"type\":\"function\"},{\"inputs\":[{\"internalType\":\"address\",\"name\":\"account\",\"type\":\"address\"},{\"internalType\":\"uint256\",\"name\":\"blockNumber\",\"type\":\"uint256\"}],\"name\":\"getVotes\",\"outputs\":[{\"internalType\":\"uint256\",\"name\":\"\",\"type\":\"uint256\"}],\"stateMutability\":\"view\",\"type\":\"function\"},{\"inputs\":[{\"internalType\":\"uint256\",\"name\":\"proposalId\",\"type\":\"uint256\"},{\"internalType\":\"address\",\"name\":\"account\",\"type\":\"address\"}],\"name\":\"hasVoted\",\"outputs\":[{\"internalType\":\"bool\",\"name\":\"\",\"type\":\"bool\"}],\"stateMutability\":\"view\",\"type\":\"function\"},{\"inputs\":[{\"internalType\":\"address[]\",\"name\":\"targets\",\"type\":\"address[]\"},{\"internalType\":\"uint256[]\",\"name\":\"values\",\"type\":\"uint256[]\"},{\"internalType\":\"bytes[]\",\"name\":\"calldatas\",\"type\":\"bytes[]\"},{\"internalType\":\"bytes32\",\"name\":\"descriptionHash\",\"type\":\"bytes32\"}],\"name\":\"hashProposal\",\"outputs\":[{\"internalType\":\"uint256\",\"name\":\"\",\"type\":\"uint256\"}],\"stateMutability\":\"pure\",\"type\":\"function\"},{\"inputs\":[],\"name\":\"name\",\"outputs\":[{\"internalType\":\"string\",\"name\":\"\",\"type\":\"string\"}],\"stateMutability\":\"view\",\"type\":\"function\"},{\"inputs\":[{\"internalType\":\"uint256\",\"name\":\"proposalId\",\"type\":\"uint256\"}],\"name\":\"proposalDeadline\",\"outputs\":[{\"internalType\":\"uint256\",\"name\":\"\",\"type\":\"uint256\"}],\"stateMutability\":\"view\",\"type\":\"function\"},{\"inputs\":[{\"internalType\":\"uint256\",\"name\":\"proposalId\",\"type\":\"uint256\"}],\"name\":\"proposalSnapshot\",\"outputs\":[{\"internalType\":\"uint256\",\"name\":\"\",\"type\":\"uint256\"}],\"stateMutability\":\"view\",\"type\":\"function\"},{\"inputs\":[{\"internalType\":\"address[]\",\"name\":\"targets\",\"type\":\"address[]\"},{\"internalType\":\"uint256[]\",\"name\":\"values\",\"type\":\"uint256[]\"},{\"internalType\":\"bytes[]\",\"name\":\"calldatas\",\"type\":\"bytes[]\"},{\"internalType\":\"string\",\"name\":\"description\",\"type\":\"string\"}],\"name\":\"propose\",\"outputs\":[{\"internalType\":\"uint256\",\"name\":\"\",\"type\":\"uint256\"}],\"stateMutability\":\"nonpayable\",\"type\":\"function\"},{\"inputs\":[{\"internalType\":\"uint256\",\"name\":\"blockNumber\",\"type\":\"uint256\"}],\"name\":\"quorum\",\"outputs\":[{\"internalType\":\"uint256\",\"name\":\"\",\"type\":\"uint256\"}],\"stateMutability\":\"view\",\"type\":\"function\"},{\"inputs\":[{\"internalType\":\"uint256\",\"name\":\"proposalId\",\"type\":\"uint256\"}],\"name\":\"state\",\"outputs\":[{\"internalType\":\"enum IGovernor.ProposalState\",\"name\":\"\",\"type\":\"uint8\"}],\"stateMutability\":\"view\",\"type\":\"function\"},{\"inputs\":[{\"internalType\":\"bytes4\",\"name\":\"interfaceId\",\"type\":\"bytes4\"}],\"name\":\"supportsInterface\",\"outputs\":[{\"internalType\":\"bool\",\"name\":\"\",\"type\":\"bool\"}],\"stateMutability\":\"view\",\"type\":\"function\"},{\"inputs\":[],\"name\":\"token\",\"outputs\":[{\"internalType\":\"contract ERC20Votes\",\"name\":\"\",\"type\":\"address\"}],\"stateMutability\":\"view\",\"type\":\"function\"},{\"inputs\":[],\"name\":\"version\",\"outputs\":[{\"internalType\":\"string\",\"name\":\"\",\"type\":\"string\"}],\"stateMutability\":\"view\",\"type\":\"function\"},{\"inputs\":[],\"name\":\"votingDelay\",\"outputs\":[{\"internalType\":\"uint256\",\"name\":\"\",\"type\":\"uint256\"}],\"stateMutability\":\"view\",\"type\":\"function\"},{\"inputs\":[],\"name\":\"votingPeriod\",\"outputs\":[{\"internalType\":\"uint256\",\"name\":\"\",\"type\":\"uint256\"}],\"stateMutability\":\"view\",\"type\":\"function\"}],\"devdoc\":{\"details\":\"Extension of {Governor} for voting weight extraction from an {ERC20Votes} token. _Available since v4.3._\",\"kind\":\"dev\",\"methods\":{\"COUNTING_MODE()\":{\"details\":\"A description of the possible `support` values for {castVote} and the way these votes are counted, meant to be consumed by UIs to show correct vote options and interpret the results. The string is a URL-encoded sequence of key-value pairs that each describe one aspect, for example `support=bravo&quorum=for,abstain`. There are 2 standard keys: `support` and `quorum`. - `support=bravo` refers to the vote options 0 = For, 1 = Against, 2 = Abstain, as in `GovernorBravo`. - `quorum=bravo` means that only For votes are counted towards quorum. - `quorum=for,abstain` means that both For and Abstain votes are counted towards quorum. NOTE: The string can be decoded by the standard https://developer.mozilla.org/en-US/docs/Web/API/URLSearchParams[`URLSearchParams`] JavaScript class.\"},\"castVote(uint256,uint8)\":{\"details\":\"See {IGovernor-castVote}.\"},\"castVoteBySig(uint256,uint8,uint8,bytes32,bytes32)\":{\"details\":\"See {IGovernor-castVoteBySig}.\"},\"castVoteWithReason(uint256,uint8,string)\":{\"details\":\"See {IGovernor-castVoteWithReason}.\"},\"execute(address[],uint256[],bytes[],bytes32)\":{\"details\":\"See {IGovernor-execute}.\"},\"hasVoted(uint256,address)\":{\"details\":\"Returns weither `account` has casted a vote on `proposalId`.\"},\"hashProposal(address[],uint256[],bytes[],bytes32)\":{\"details\":\"See {IGovernor-hashProposal}. The proposal id is produced by hashing the RLC encoded `targets` array, the `values` array, the `calldatas` array and the descriptionHash (bytes32 which itself is the keccak256 hash of the description string). This proposal id can be produced from the proposal data which is part of the {ProposalCreated} event. It can even be computed in advance, before the proposal is submitted. Note that the chainId and the governor address are not part of the proposal id computation. Consequently, the same proposal (with same operation and same description) will have the same id if submitted on multiple governors accross multiple networks. This also means that in order to execute the same operation twice (on the same governor) the proposer will have to change the description in order to avoid proposal id conflicts.\"},\"name()\":{\"details\":\"See {IGovernor-name}.\"},\"proposalDeadline(uint256)\":{\"details\":\"See {IGovernor-proposalDeadline}.\"},\"proposalSnapshot(uint256)\":{\"details\":\"See {IGovernor-proposalSnapshot}.\"},\"propose(address[],uint256[],bytes[],string)\":{\"details\":\"See {IGovernor-propose}.\"},\"quorum(uint256)\":{\"details\":\"Minimum number of casted voted requiered for a proposal to be successful. Note: The `blockNumber` parameter corresponds to the snaphot used for counting vote. This allows to scale the quroum depending on values such as the totalSupply of a token at this block (see {ERC20Votes}).\"},\"state(uint256)\":{\"details\":\"See {IGovernor-state}.\"},\"supportsInterface(bytes4)\":{\"details\":\"See {IERC165-supportsInterface}.\"},\"version()\":{\"details\":\"See {IGovernor-version}.\"},\"votingDelay()\":{\"details\":\"delay, in number of block, between the proposal is created and the vote starts. This can be increassed to leave time for users to buy voting power, of delegate it, before the voting of a proposal starts.\"},\"votingPeriod()\":{\"details\":\"delay, in number of blocks, between the vote start and vote ends. Note: the {votingDelay} can delay the start of the vote. This must be considered when setting the voting duration compared to the voting delay.\"}},\"version\":1},\"userdoc\":{\"kind\":\"user\",\"methods\":{\"COUNTING_MODE()\":{\"notice\":\"module:voting\"},\"getVotes(address,uint256)\":{\"notice\":\"Read the voting weight from the token's built in snapshot mechanism (see {IGovernor-getVotes}).\"},\"hasVoted(uint256,address)\":{\"notice\":\"module:voting\"},\"quorum(uint256)\":{\"notice\":\"module:user-config\"},\"votingDelay()\":{\"notice\":\"module:user-config\"},\"votingPeriod()\":{\"notice\":\"module:user-config\"}},\"version\":1}},\"settings\":{\"compilationTarget\":{\"project:/contracts/openzeppelin/contracts/governance/extensions/GovernorVotes.sol\":\"GovernorVotes\"},\"evmVersion\":\"istanbul\",\"libraries\":{},\"metadata\":{\"bytecodeHash\":\"ipfs\"},\"optimizer\":{\"enabled\":false,\"runs\":200},\"remappings\":[]},\"sources\":{\"project:/contracts/openzeppelin/contracts/governance/Governor.sol\":{\"keccak256\":\"0x17eafe0ab6ed4f59d9f239623bf60c314d5d5fc495d3e6b567a1690ce42df8e8\",\"license\":\"MIT\",\"urls\":[\"bzz-raw://58d302546bc75191225469c1bc826b9df4b803922e3de13431ee610c01cd1970\",\"dweb:/ipfs/QmWp2SggqztvXm4aGweAL6xz1TfvXKo393T9XzTKSktxjp\"]},\"project:/contracts/openzeppelin/contracts/governance/IGovernor.sol\":{\"keccak256\":\"0x0ba4159fe674502fba0f04d4ce91ca4040d5743e3502e2b70fa89ed92ba01d50\",\"license\":\"MIT\",\"urls\":[\"bzz-raw://b915b261cc196fce20ebb099acfd99644755b58f89197d18ce7fa42966a3157e\",\"dweb:/ipfs/QmZPhnETdAZmd5GHrADDHbXsCzohneEo4txUdRytUHQGBC\"]},\"project:/contracts/openzeppelin/contracts/governance/extensions/GovernorVotes.sol\":{\"keccak256\":\"0xb89a9f1d8628f7a24d54645803c5ef2ebc99c32718f62ff35674039a6325b615\",\"license\":\"MIT\",\"urls\":[\"bzz-raw://6bdfaaa2d1feed6e51700182ed880ce7f662603ca85eb9e8f077c5fe87576821\",\"dweb:/ipfs/QmfDKbMYSjqkjKRuo8ptTXJepckJYMM8RvRLq8ZNG3h27f\"]},\"project:/contracts/openzeppelin/contracts/token/ERC20/ERC20.sol\":{\"keccak256\":\"0xb03df8481a954604ad0c9125680893b2e3f7ff770fe470e38b89ac61b84e8072\",\"license\":\"MIT\",\"urls\":[\"bzz-raw://b34655953d18ba3a45b762fb6bdbb6549af69a27435e10ece178742bf70baf45\",\"dweb:/ipfs/QmcqjUoFLLMyx7dbwSHUnDBH6aphkVHXWQvQRRev5EAWEh\"]},\"project:/contracts/openzeppelin/contracts/token/ERC20/IERC20.sol\":{\"keccak256\":\"0x027b891937d20ccf213fdb9c31531574256de774bda99d3a70ecef6e1913ed2a\",\"license\":\"MIT\",\"urls\":[\"bzz-raw://087318b21c528119f649899f5b5580566dd8d7b0303d4904bd0e8580c3545f14\",\"dweb:/ipfs/Qmbn5Mj7aUn8hJuQ8VrQjjEXRsXyJKykgnjR9p4C3nfLtL\"]},\"project:/contracts/openzeppelin/contracts/token/ERC20/extensions/ERC20Votes.sol\":{\"keccak256\":\"0x5ededcc80abc4797cdad3c0344c510a6aee060460f3fb8ec5983c4cfaeaef5e7\",\"license\":\"MIT\",\"urls\":[\"bzz-raw://7de56624893e957550f5ce7d2f799367e84938faafcebfe469ff073aa6e4fdbf\",\"dweb:/ipfs/QmQhihi8JUZV84DxK36Sj9THjUhUXpSX1c7PZXsAYUsrSc\"]},\"project:/contracts/openzeppelin/contracts/token/ERC20/extensions/IERC20Metadata.sol\":{\"keccak256\":\"0x83fe24f5c04a56091e50f4a345ff504c8bff658a76d4c43b16878c8f940c53b2\",\"license\":\"MIT\",\"urls\":[\"bzz-raw://d4c3df1a7ca104b633a7d81c6c6f5192367d150cd5a32cba81f7f27012729013\",\"dweb:/ipfs/QmSim72e3ZVsfgZt8UceCvbiSuMRHR6WDsiamqNzZahGSY\"]},\"project:/contracts/openzeppelin/contracts/token/ERC20/extensions/draft-ERC20Permit.sol\":{\"keccak256\":\"0x7ce4684ee1fac31ee5671df82b30c10bd2ebf88add2f63524ed00618a8486907\",\"license\":\"MIT\",\"urls\":[\"bzz-raw://8e7303cd711d80537ba1d68118b4fd821f68c339db88ea88706dad96a078c382\",\"dweb:/ipfs/QmX4X9avozvtVH8F8ixE8mCvYA2bci1rdiLAcDtTTtaYoL\"]},\"project:/contracts/openzeppelin/contracts/token/ERC20/extensions/draft-IERC20Permit.sol\":{\"keccak256\":\"0x3aab711a5f9a5a5a394191e928cc8258e8a243e855bb0275e7834f9686383277\",\"license\":\"MIT\",\"urls\":[\"bzz-raw://40922d7e97d4f43fe30f418bd9e2b95495c9b1caf6df30c87a1df4fd82a1330d\",\"dweb:/ipfs/QmZocr8f8MKrLWkmuhBfrb9Ls5eeQ5CoUpA64uGAxAZoLL\"]},\"project:/contracts/openzeppelin/contracts/utils/Address.sol\":{\"keccak256\":\"0x3336baae5cf23e94274d75336e2d412193be508504aee185e61dc7d58cd05c8a\",\"license\":\"MIT\",\"urls\":[\"bzz-raw://39a05eec7083dfa0cc7e0cbfe6cd1bd085a340af1ede93fdff3ad047c5fb3d8e\",\"dweb:/ipfs/QmVApz5fCUq2QC8gKTsNNdCmcedJ3ETHp68zR5N3WUKS4r\"]},\"project:/contracts/openzeppelin/contracts/utils/Context.sol\":{\"keccak256\":\"0x90565a39ae45c80f0468dc96c7b20d0afc3055f344c8203a0c9258239f350b9f\",\"license\":\"MIT\",\"urls\":[\"bzz-raw://26e8b38a7ac8e7b4463af00cf7fff1bf48ae9875765bf4f7751e100124d0bc8c\",\"dweb:/ipfs/QmWcsmkVr24xmmjfnBQZoemFniXjj3vwT78Cz6uqZW1Hux\"]},\"project:/contracts/openzeppelin/contracts/utils/Counters.sol\":{\"keccak256\":\"0x78450f4e3b722cce467b21e285f72ce5eaf361e9ba9dd2241a413926246773cd\",\"license\":\"MIT\",\"urls\":[\"bzz-raw://f103065051300cd995fd4599ba91188d4071b92175b52f26110e02db091617c0\",\"dweb:/ipfs/QmSyDz67R2HCypDE8Pacn3voVwxw9x17NM66q47YgBnGqc\"]},\"project:/contracts/openzeppelin/contracts/utils/Timers.sol\":{\"keccak256\":\"0xa148c8589518a17ee22057cafe18b8c2da8330201a8ee20cfd66b576a01f5778\",\"license\":\"MIT\",\"urls\":[\"bzz-raw://07a9af472c8cc18738f78c99605e4cc9e55badc806d307a16a46845f6bceccf6\",\"dweb:/ipfs/QmUBFGVpABHYzDnoURksaYcPSbXxPZwb5HUojvCQ7wstE2\"]},\"project:/contracts/openzeppelin/contracts/utils/cryptography/ECDSA.sol\":{\"keccak256\":\"0xbc991a1cf357ce19480831a40792c814238a3b5458134703682abd8aa39719fb\",\"license\":\"MIT\",\"urls\":[\"bzz-raw://ab2e3313add3a233ad2d1e9b65cb7c0296bdbe159c6d631da2b1d027b4954926\",\"dweb:/ipfs/QmT8bVda92mptimLgonyq28qENq4sRgy6K3v118CvZcKdP\"]},\"project:/contracts/openzeppelin/contracts/utils/cryptography/draft-EIP712.sol\":{\"keccak256\":\"0xba18d725602452307e5b278ed4566616c63792d89f3a0388a6f285428c26e681\",\"license\":\"MIT\",\"urls\":[\"bzz-raw://ae8649b93777da3acd1cda2e7096d5663b9d414ac6a93fbafb22bfc34b8c0bb6\",\"dweb:/ipfs/QmdoZ6ZAj9YzCjKnNo2PmF7Xs8AP3NtiRJZNRzfZEjoy55\"]},\"project:/contracts/openzeppelin/contracts/utils/introspection/ERC165.sol\":{\"keccak256\":\"0x5718c5df9bd67ac68a796961df938821bb5dc0cd4c6118d77e9145afb187409b\",\"license\":\"MIT\",\"urls\":[\"bzz-raw://d10e1d9b26042424789246603906ad06143bf9a928f4e99de8b5e3bdc662f549\",\"dweb:/ipfs/Qmejonoaj5MLekPus229rJQHcC6E9dz2xorjHJR84fMfmn\"]},\"project:/contracts/openzeppelin/contracts/utils/introspection/IERC165.sol\":{\"keccak256\":\"0xa28007762d9da9db878dd421960c8cb9a10471f47ab5c1b3309bfe48e9e79ff4\",\"license\":\"MIT\",\"urls\":[\"bzz-raw://796ab6e88af7bf0e78def0f059310c903af6a312b565344e0ff524a0f26e81c6\",\"dweb:/ipfs/QmcsVgLgzWdor3UnAztUkXKNGcysm1MPneWksF72AvnwBx\"]},\"project:/contracts/openzeppelin/contracts/utils/math/Math.sol\":{\"keccak256\":\"0x49ebdac5d515aebb95168564158940b79d7d5d12fbfe59cec546a00d57fee64a\",\"license\":\"MIT\",\"urls\":[\"bzz-raw://c02d3ba19711bffdb7aa33ff3107cfd17902c82640837ef0de2e327515f4f70d\",\"dweb:/ipfs/QmdR7JUXpD5X7eXkc24bRtNj3e7ahs8RC8s25cu7X14GHU\"]},\"project:/contracts/openzeppelin/contracts/utils/math/SafeCast.sol\":{\"keccak256\":\"0x08d867b4c0bb782b9135691fa732b6846e0f133006489c3aa505abd1f6de56cb\",\"license\":\"MIT\",\"urls\":[\"bzz-raw://b77bcb10d18368236908e2dd94a8e138e330ce672995017c1dae001551a5d639\",\"dweb:/ipfs/QmdZs431M8sA4mTsSe8PeycREkBAmzC4a6NN7eFppyK62B\"]}},\"version\":1}",
  "bytecode": "0x",
  "deployedBytecode": "0x",
  "immutableReferences": {},
  "generatedSources": [],
  "deployedGeneratedSources": [],
  "sourceMap": "",
  "deployedSourceMap": "",
  "source": "// SPDX-License-Identifier: MIT\n\npragma solidity ^0.8.0;\n\nimport \"../Governor.sol\";\nimport \"../../token/ERC20/extensions/ERC20Votes.sol\";\nimport \"../../utils/math/Math.sol\";\n\n/**\n * @dev Extension of {Governor} for voting weight extraction from an {ERC20Votes} token.\n *\n * _Available since v4.3._\n */\nabstract contract GovernorVotes is Governor {\n    ERC20Votes public immutable token;\n\n    constructor(ERC20Votes tokenAddress) {\n        token = tokenAddress;\n    }\n\n    /**\n     * Read the voting weight from the token's built in snapshot mechanism (see {IGovernor-getVotes}).\n     */\n    function getVotes(address account, uint256 blockNumber) public view virtual override returns (uint256) {\n        return token.getPastVotes(account, blockNumber);\n    }\n}\n",
  "sourcePath": "/home/sushant/Documents/blockchain_work/EatTheBlock/ecomapp2/contracts/openzeppelin/contracts/governance/extensions/GovernorVotes.sol",
  "ast": {
    "absolutePath": "project:/contracts/openzeppelin/contracts/governance/extensions/GovernorVotes.sol",
    "exportedSymbols": {
      "Address": [
        23619
      ],
      "Context": [
        23726
      ],
      "Counters": [
        23800
      ],
      "ECDSA": [
        24810
      ],
      "EIP712": [
        25098
      ],
      "ERC165": [
        25432
      ],
      "ERC20": [
        17914
      ],
      "ERC20Permit": [
        19655
      ],
      "ERC20Votes": [
        19296
      ],
      "Governor": [
        2559
      ],
      "GovernorVotes": [
        5773
      ],
      "IERC165": [
        25756
      ],
      "IERC20": [
        17992
      ],
      "IERC20Metadata": [
        19486
      ],
      "IERC20Permit": [
        19691
      ],
      "IGovernor": [
        2795
      ],
      "Math": [
        25948
      ],
      "SafeCast": [
        26341
      ],
      "Timers": [
        24443
      ]
    },
    "id": 5774,
    "license": "MIT",
    "nodeType": "SourceUnit",
    "nodes": [
      {
        "id": 5734,
        "literals": [
          "solidity",
          "^",
          "0.8",
          ".0"
        ],
        "nodeType": "PragmaDirective",
        "src": "33:23:23"
      },
      {
        "absolutePath": "project:/contracts/openzeppelin/contracts/governance/Governor.sol",
        "file": "../Governor.sol",
        "id": 5735,
        "nameLocation": "-1:-1:-1",
        "nodeType": "ImportDirective",
        "scope": 5774,
        "sourceUnit": 2560,
        "src": "58:25:23",
        "symbolAliases": [],
        "unitAlias": ""
      },
      {
        "absolutePath": "project:/contracts/openzeppelin/contracts/token/ERC20/extensions/ERC20Votes.sol",
        "file": "../../token/ERC20/extensions/ERC20Votes.sol",
        "id": 5736,
        "nameLocation": "-1:-1:-1",
        "nodeType": "ImportDirective",
        "scope": 5774,
        "sourceUnit": 19297,
        "src": "84:53:23",
        "symbolAliases": [],
        "unitAlias": ""
      },
      {
        "absolutePath": "project:/contracts/openzeppelin/contracts/utils/math/Math.sol",
        "file": "../../utils/math/Math.sol",
        "id": 5737,
        "nameLocation": "-1:-1:-1",
        "nodeType": "ImportDirective",
        "scope": 5774,
        "sourceUnit": 25949,
        "src": "138:35:23",
        "symbolAliases": [],
        "unitAlias": ""
      },
      {
        "abstract": true,
        "baseContracts": [
          {
            "baseName": {
              "id": 5739,
              "name": "Governor",
              "nodeType": "IdentifierPath",
              "referencedDeclaration": 2559,
              "src": "337:8:23"
            },
            "id": 5740,
            "nodeType": "InheritanceSpecifier",
            "src": "337:8:23"
          }
        ],
        "contractDependencies": [
          2559,
          2795,
          23726,
          25098,
          25432,
          25756
        ],
        "contractKind": "contract",
        "documentation": {
          "id": 5738,
          "nodeType": "StructuredDocumentation",
          "src": "175:126:23",
          "text": " @dev Extension of {Governor} for voting weight extraction from an {ERC20Votes} token.\n _Available since v4.3._"
        },
        "fullyImplemented": false,
        "id": 5773,
        "linearizedBaseContracts": [
          5773,
          2559,
          2795,
          25098,
          25432,
          25756,
          23726
        ],
        "name": "GovernorVotes",
        "nameLocation": "320:13:23",
        "nodeType": "ContractDefinition",
        "nodes": [
          {
            "constant": false,
            "functionSelector": "fc0c546a",
            "id": 5743,
            "mutability": "immutable",
            "name": "token",
            "nameLocation": "380:5:23",
            "nodeType": "VariableDeclaration",
            "scope": 5773,
            "src": "352:33:23",
            "stateVariable": true,
            "storageLocation": "default",
            "typeDescriptions": {
              "typeIdentifier": "t_contract$_ERC20Votes_$19296",
              "typeString": "contract ERC20Votes"
            },
            "typeName": {
              "id": 5742,
              "nodeType": "UserDefinedTypeName",
              "pathNode": {
                "id": 5741,
                "name": "ERC20Votes",
                "nodeType": "IdentifierPath",
                "referencedDeclaration": 19296,
                "src": "352:10:23"
              },
              "referencedDeclaration": 19296,
              "src": "352:10:23",
              "typeDescriptions": {
                "typeIdentifier": "t_contract$_ERC20Votes_$19296",
                "typeString": "contract ERC20Votes"
              }
            },
            "visibility": "public"
          },
          {
            "body": {
              "id": 5753,
              "nodeType": "Block",
              "src": "429:37:23",
              "statements": [
                {
                  "expression": {
                    "id": 5751,
                    "isConstant": false,
                    "isLValue": false,
                    "isPure": false,
                    "lValueRequested": false,
                    "leftHandSide": {
                      "id": 5749,
                      "name": "token",
                      "nodeType": "Identifier",
                      "overloadedDeclarations": [],
                      "referencedDeclaration": 5743,
                      "src": "439:5:23",
                      "typeDescriptions": {
                        "typeIdentifier": "t_contract$_ERC20Votes_$19296",
                        "typeString": "contract ERC20Votes"
                      }
                    },
                    "nodeType": "Assignment",
                    "operator": "=",
                    "rightHandSide": {
                      "id": 5750,
                      "name": "tokenAddress",
                      "nodeType": "Identifier",
                      "overloadedDeclarations": [],
                      "referencedDeclaration": 5746,
                      "src": "447:12:23",
                      "typeDescriptions": {
                        "typeIdentifier": "t_contract$_ERC20Votes_$19296",
                        "typeString": "contract ERC20Votes"
                      }
                    },
                    "src": "439:20:23",
                    "typeDescriptions": {
                      "typeIdentifier": "t_contract$_ERC20Votes_$19296",
                      "typeString": "contract ERC20Votes"
                    }
                  },
                  "id": 5752,
                  "nodeType": "ExpressionStatement",
                  "src": "439:20:23"
                }
              ]
            },
            "id": 5754,
            "implemented": true,
            "kind": "constructor",
            "modifiers": [],
            "name": "",
            "nameLocation": "-1:-1:-1",
            "nodeType": "FunctionDefinition",
            "parameters": {
              "id": 5747,
              "nodeType": "ParameterList",
              "parameters": [
                {
                  "constant": false,
                  "id": 5746,
                  "mutability": "mutable",
                  "name": "tokenAddress",
                  "nameLocation": "415:12:23",
                  "nodeType": "VariableDeclaration",
                  "scope": 5754,
                  "src": "404:23:23",
                  "stateVariable": false,
                  "storageLocation": "default",
                  "typeDescriptions": {
                    "typeIdentifier": "t_contract$_ERC20Votes_$19296",
                    "typeString": "contract ERC20Votes"
                  },
                  "typeName": {
                    "id": 5745,
                    "nodeType": "UserDefinedTypeName",
                    "pathNode": {
                      "id": 5744,
                      "name": "ERC20Votes",
                      "nodeType": "IdentifierPath",
                      "referencedDeclaration": 19296,
                      "src": "404:10:23"
                    },
                    "referencedDeclaration": 19296,
                    "src": "404:10:23",
                    "typeDescriptions": {
                      "typeIdentifier": "t_contract$_ERC20Votes_$19296",
                      "typeString": "contract ERC20Votes"
                    }
                  },
                  "visibility": "internal"
                }
              ],
              "src": "403:25:23"
            },
            "returnParameters": {
              "id": 5748,
              "nodeType": "ParameterList",
              "parameters": [],
              "src": "429:0:23"
            },
            "scope": 5773,
            "src": "392:74:23",
            "stateMutability": "nonpayable",
            "virtual": false,
            "visibility": "internal"
          },
          {
            "baseFunctions": [
              2712
            ],
            "body": {
              "id": 5771,
              "nodeType": "Block",
              "src": "694:64:23",
              "statements": [
                {
                  "expression": {
                    "arguments": [
                      {
                        "id": 5767,
                        "name": "account",
                        "nodeType": "Identifier",
                        "overloadedDeclarations": [],
                        "referencedDeclaration": 5757,
                        "src": "730:7:23",
                        "typeDescriptions": {
                          "typeIdentifier": "t_address",
                          "typeString": "address"
                        }
                      },
                      {
                        "id": 5768,
                        "name": "blockNumber",
                        "nodeType": "Identifier",
                        "overloadedDeclarations": [],
                        "referencedDeclaration": 5759,
                        "src": "739:11:23",
                        "typeDescriptions": {
                          "typeIdentifier": "t_uint256",
                          "typeString": "uint256"
                        }
                      }
                    ],
                    "expression": {
                      "argumentTypes": [
                        {
                          "typeIdentifier": "t_address",
                          "typeString": "address"
                        },
                        {
                          "typeIdentifier": "t_uint256",
                          "typeString": "uint256"
                        }
                      ],
                      "expression": {
                        "id": 5765,
                        "name": "token",
                        "nodeType": "Identifier",
                        "overloadedDeclarations": [],
                        "referencedDeclaration": 5743,
                        "src": "711:5:23",
                        "typeDescriptions": {
                          "typeIdentifier": "t_contract$_ERC20Votes_$19296",
                          "typeString": "contract ERC20Votes"
                        }
                      },
                      "id": 5766,
                      "isConstant": false,
                      "isLValue": false,
                      "isPure": false,
                      "lValueRequested": false,
                      "memberName": "getPastVotes",
                      "nodeType": "MemberAccess",
                      "referencedDeclaration": 18805,
                      "src": "711:18:23",
                      "typeDescriptions": {
                        "typeIdentifier": "t_function_external_view$_t_address_$_t_uint256_$returns$_t_uint256_$",
                        "typeString": "function (address,uint256) view external returns (uint256)"
                      }
                    },
                    "id": 5769,
                    "isConstant": false,
                    "isLValue": false,
                    "isPure": false,
                    "kind": "functionCall",
                    "lValueRequested": false,
                    "names": [],
                    "nodeType": "FunctionCall",
                    "src": "711:40:23",
                    "tryCall": false,
                    "typeDescriptions": {
                      "typeIdentifier": "t_uint256",
                      "typeString": "uint256"
                    }
                  },
                  "functionReturnParameters": 5764,
                  "id": 5770,
                  "nodeType": "Return",
                  "src": "704:47:23"
                }
              ]
            },
            "documentation": {
              "id": 5755,
              "nodeType": "StructuredDocumentation",
              "src": "472:114:23",
              "text": " Read the voting weight from the token's built in snapshot mechanism (see {IGovernor-getVotes})."
            },
            "functionSelector": "eb9019d4",
            "id": 5772,
            "implemented": true,
            "kind": "function",
            "modifiers": [],
            "name": "getVotes",
            "nameLocation": "600:8:23",
            "nodeType": "FunctionDefinition",
            "overrides": {
              "id": 5761,
              "nodeType": "OverrideSpecifier",
              "overrides": [],
              "src": "667:8:23"
            },
            "parameters": {
              "id": 5760,
              "nodeType": "ParameterList",
              "parameters": [
                {
                  "constant": false,
                  "id": 5757,
                  "mutability": "mutable",
                  "name": "account",
                  "nameLocation": "617:7:23",
                  "nodeType": "VariableDeclaration",
                  "scope": 5772,
                  "src": "609:15:23",
                  "stateVariable": false,
                  "storageLocation": "default",
                  "typeDescriptions": {
                    "typeIdentifier": "t_address",
                    "typeString": "address"
                  },
                  "typeName": {
                    "id": 5756,
                    "name": "address",
                    "nodeType": "ElementaryTypeName",
                    "src": "609:7:23",
                    "stateMutability": "nonpayable",
                    "typeDescriptions": {
                      "typeIdentifier": "t_address",
                      "typeString": "address"
                    }
                  },
                  "visibility": "internal"
                },
                {
                  "constant": false,
                  "id": 5759,
                  "mutability": "mutable",
                  "name": "blockNumber",
                  "nameLocation": "634:11:23",
                  "nodeType": "VariableDeclaration",
                  "scope": 5772,
                  "src": "626:19:23",
                  "stateVariable": false,
                  "storageLocation": "default",
                  "typeDescriptions": {
                    "typeIdentifier": "t_uint256",
                    "typeString": "uint256"
                  },
                  "typeName": {
                    "id": 5758,
                    "name": "uint256",
                    "nodeType": "ElementaryTypeName",
                    "src": "626:7:23",
                    "typeDescriptions": {
                      "typeIdentifier": "t_uint256",
                      "typeString": "uint256"
                    }
                  },
                  "visibility": "internal"
                }
              ],
              "src": "608:38:23"
            },
            "returnParameters": {
              "id": 5764,
              "nodeType": "ParameterList",
              "parameters": [
                {
                  "constant": false,
                  "id": 5763,
                  "mutability": "mutable",
                  "name": "",
                  "nameLocation": "-1:-1:-1",
                  "nodeType": "VariableDeclaration",
                  "scope": 5772,
                  "src": "685:7:23",
                  "stateVariable": false,
                  "storageLocation": "default",
                  "typeDescriptions": {
                    "typeIdentifier": "t_uint256",
                    "typeString": "uint256"
                  },
                  "typeName": {
                    "id": 5762,
                    "name": "uint256",
                    "nodeType": "ElementaryTypeName",
                    "src": "685:7:23",
                    "typeDescriptions": {
                      "typeIdentifier": "t_uint256",
                      "typeString": "uint256"
                    }
                  },
                  "visibility": "internal"
                }
              ],
              "src": "684:9:23"
            },
            "scope": 5773,
            "src": "591:167:23",
            "stateMutability": "view",
            "virtual": true,
            "visibility": "public"
          }
        ],
        "scope": 5774,
        "src": "302:458:23"
      }
    ],
    "src": "33:728:23"
  },
  "legacyAST": {
    "absolutePath": "project:/contracts/openzeppelin/contracts/governance/extensions/GovernorVotes.sol",
    "exportedSymbols": {
      "Address": [
        23619
      ],
      "Context": [
        23726
      ],
      "Counters": [
        23800
      ],
      "ECDSA": [
        24810
      ],
      "EIP712": [
        25098
      ],
      "ERC165": [
        25432
      ],
      "ERC20": [
        17914
      ],
      "ERC20Permit": [
        19655
      ],
      "ERC20Votes": [
        19296
      ],
      "Governor": [
        2559
      ],
      "GovernorVotes": [
        5773
      ],
      "IERC165": [
        25756
      ],
      "IERC20": [
        17992
      ],
      "IERC20Metadata": [
        19486
      ],
      "IERC20Permit": [
        19691
      ],
      "IGovernor": [
        2795
      ],
      "Math": [
        25948
      ],
      "SafeCast": [
        26341
      ],
      "Timers": [
        24443
      ]
    },
    "id": 5774,
    "license": "MIT",
    "nodeType": "SourceUnit",
    "nodes": [
      {
        "id": 5734,
        "literals": [
          "solidity",
          "^",
          "0.8",
          ".0"
        ],
        "nodeType": "PragmaDirective",
        "src": "33:23:23"
      },
      {
        "absolutePath": "project:/contracts/openzeppelin/contracts/governance/Governor.sol",
        "file": "../Governor.sol",
        "id": 5735,
        "nameLocation": "-1:-1:-1",
        "nodeType": "ImportDirective",
        "scope": 5774,
        "sourceUnit": 2560,
        "src": "58:25:23",
        "symbolAliases": [],
        "unitAlias": ""
      },
      {
        "absolutePath": "project:/contracts/openzeppelin/contracts/token/ERC20/extensions/ERC20Votes.sol",
        "file": "../../token/ERC20/extensions/ERC20Votes.sol",
        "id": 5736,
        "nameLocation": "-1:-1:-1",
        "nodeType": "ImportDirective",
        "scope": 5774,
        "sourceUnit": 19297,
        "src": "84:53:23",
        "symbolAliases": [],
        "unitAlias": ""
      },
      {
        "absolutePath": "project:/contracts/openzeppelin/contracts/utils/math/Math.sol",
        "file": "../../utils/math/Math.sol",
        "id": 5737,
        "nameLocation": "-1:-1:-1",
        "nodeType": "ImportDirective",
        "scope": 5774,
        "sourceUnit": 25949,
        "src": "138:35:23",
        "symbolAliases": [],
        "unitAlias": ""
      },
      {
        "abstract": true,
        "baseContracts": [
          {
            "baseName": {
              "id": 5739,
              "name": "Governor",
              "nodeType": "IdentifierPath",
              "referencedDeclaration": 2559,
              "src": "337:8:23"
            },
            "id": 5740,
            "nodeType": "InheritanceSpecifier",
            "src": "337:8:23"
          }
        ],
        "contractDependencies": [
          2559,
          2795,
          23726,
          25098,
          25432,
          25756
        ],
        "contractKind": "contract",
        "documentation": {
          "id": 5738,
          "nodeType": "StructuredDocumentation",
          "src": "175:126:23",
          "text": " @dev Extension of {Governor} for voting weight extraction from an {ERC20Votes} token.\n _Available since v4.3._"
        },
        "fullyImplemented": false,
        "id": 5773,
        "linearizedBaseContracts": [
          5773,
          2559,
          2795,
          25098,
          25432,
          25756,
          23726
        ],
        "name": "GovernorVotes",
        "nameLocation": "320:13:23",
        "nodeType": "ContractDefinition",
        "nodes": [
          {
            "constant": false,
            "functionSelector": "fc0c546a",
            "id": 5743,
            "mutability": "immutable",
            "name": "token",
            "nameLocation": "380:5:23",
            "nodeType": "VariableDeclaration",
            "scope": 5773,
            "src": "352:33:23",
            "stateVariable": true,
            "storageLocation": "default",
            "typeDescriptions": {
              "typeIdentifier": "t_contract$_ERC20Votes_$19296",
              "typeString": "contract ERC20Votes"
            },
            "typeName": {
              "id": 5742,
              "nodeType": "UserDefinedTypeName",
              "pathNode": {
                "id": 5741,
                "name": "ERC20Votes",
                "nodeType": "IdentifierPath",
                "referencedDeclaration": 19296,
                "src": "352:10:23"
              },
              "referencedDeclaration": 19296,
              "src": "352:10:23",
              "typeDescriptions": {
                "typeIdentifier": "t_contract$_ERC20Votes_$19296",
                "typeString": "contract ERC20Votes"
              }
            },
            "visibility": "public"
          },
          {
            "body": {
              "id": 5753,
              "nodeType": "Block",
              "src": "429:37:23",
              "statements": [
                {
                  "expression": {
                    "id": 5751,
                    "isConstant": false,
                    "isLValue": false,
                    "isPure": false,
                    "lValueRequested": false,
                    "leftHandSide": {
                      "id": 5749,
                      "name": "token",
                      "nodeType": "Identifier",
                      "overloadedDeclarations": [],
                      "referencedDeclaration": 5743,
                      "src": "439:5:23",
                      "typeDescriptions": {
                        "typeIdentifier": "t_contract$_ERC20Votes_$19296",
                        "typeString": "contract ERC20Votes"
                      }
                    },
                    "nodeType": "Assignment",
                    "operator": "=",
                    "rightHandSide": {
                      "id": 5750,
                      "name": "tokenAddress",
                      "nodeType": "Identifier",
                      "overloadedDeclarations": [],
                      "referencedDeclaration": 5746,
                      "src": "447:12:23",
                      "typeDescriptions": {
                        "typeIdentifier": "t_contract$_ERC20Votes_$19296",
                        "typeString": "contract ERC20Votes"
                      }
                    },
                    "src": "439:20:23",
                    "typeDescriptions": {
                      "typeIdentifier": "t_contract$_ERC20Votes_$19296",
                      "typeString": "contract ERC20Votes"
                    }
                  },
                  "id": 5752,
                  "nodeType": "ExpressionStatement",
                  "src": "439:20:23"
                }
              ]
            },
            "id": 5754,
            "implemented": true,
            "kind": "constructor",
            "modifiers": [],
            "name": "",
            "nameLocation": "-1:-1:-1",
            "nodeType": "FunctionDefinition",
            "parameters": {
              "id": 5747,
              "nodeType": "ParameterList",
              "parameters": [
                {
                  "constant": false,
                  "id": 5746,
                  "mutability": "mutable",
                  "name": "tokenAddress",
                  "nameLocation": "415:12:23",
                  "nodeType": "VariableDeclaration",
                  "scope": 5754,
                  "src": "404:23:23",
                  "stateVariable": false,
                  "storageLocation": "default",
                  "typeDescriptions": {
                    "typeIdentifier": "t_contract$_ERC20Votes_$19296",
                    "typeString": "contract ERC20Votes"
                  },
                  "typeName": {
                    "id": 5745,
                    "nodeType": "UserDefinedTypeName",
                    "pathNode": {
                      "id": 5744,
                      "name": "ERC20Votes",
                      "nodeType": "IdentifierPath",
                      "referencedDeclaration": 19296,
                      "src": "404:10:23"
                    },
                    "referencedDeclaration": 19296,
                    "src": "404:10:23",
                    "typeDescriptions": {
                      "typeIdentifier": "t_contract$_ERC20Votes_$19296",
                      "typeString": "contract ERC20Votes"
                    }
                  },
                  "visibility": "internal"
                }
              ],
              "src": "403:25:23"
            },
            "returnParameters": {
              "id": 5748,
              "nodeType": "ParameterList",
              "parameters": [],
              "src": "429:0:23"
            },
            "scope": 5773,
            "src": "392:74:23",
            "stateMutability": "nonpayable",
            "virtual": false,
            "visibility": "internal"
          },
          {
            "baseFunctions": [
              2712
            ],
            "body": {
              "id": 5771,
              "nodeType": "Block",
              "src": "694:64:23",
              "statements": [
                {
                  "expression": {
                    "arguments": [
                      {
                        "id": 5767,
                        "name": "account",
                        "nodeType": "Identifier",
                        "overloadedDeclarations": [],
                        "referencedDeclaration": 5757,
                        "src": "730:7:23",
                        "typeDescriptions": {
                          "typeIdentifier": "t_address",
                          "typeString": "address"
                        }
                      },
                      {
                        "id": 5768,
                        "name": "blockNumber",
                        "nodeType": "Identifier",
                        "overloadedDeclarations": [],
                        "referencedDeclaration": 5759,
                        "src": "739:11:23",
                        "typeDescriptions": {
                          "typeIdentifier": "t_uint256",
                          "typeString": "uint256"
                        }
                      }
                    ],
                    "expression": {
                      "argumentTypes": [
                        {
                          "typeIdentifier": "t_address",
                          "typeString": "address"
                        },
                        {
                          "typeIdentifier": "t_uint256",
                          "typeString": "uint256"
                        }
                      ],
                      "expression": {
                        "id": 5765,
                        "name": "token",
                        "nodeType": "Identifier",
                        "overloadedDeclarations": [],
                        "referencedDeclaration": 5743,
                        "src": "711:5:23",
                        "typeDescriptions": {
                          "typeIdentifier": "t_contract$_ERC20Votes_$19296",
                          "typeString": "contract ERC20Votes"
                        }
                      },
                      "id": 5766,
                      "isConstant": false,
                      "isLValue": false,
                      "isPure": false,
                      "lValueRequested": false,
                      "memberName": "getPastVotes",
                      "nodeType": "MemberAccess",
                      "referencedDeclaration": 18805,
                      "src": "711:18:23",
                      "typeDescriptions": {
                        "typeIdentifier": "t_function_external_view$_t_address_$_t_uint256_$returns$_t_uint256_$",
                        "typeString": "function (address,uint256) view external returns (uint256)"
                      }
                    },
                    "id": 5769,
                    "isConstant": false,
                    "isLValue": false,
                    "isPure": false,
                    "kind": "functionCall",
                    "lValueRequested": false,
                    "names": [],
                    "nodeType": "FunctionCall",
                    "src": "711:40:23",
                    "tryCall": false,
                    "typeDescriptions": {
                      "typeIdentifier": "t_uint256",
                      "typeString": "uint256"
                    }
                  },
                  "functionReturnParameters": 5764,
                  "id": 5770,
                  "nodeType": "Return",
                  "src": "704:47:23"
                }
              ]
            },
            "documentation": {
              "id": 5755,
              "nodeType": "StructuredDocumentation",
              "src": "472:114:23",
              "text": " Read the voting weight from the token's built in snapshot mechanism (see {IGovernor-getVotes})."
            },
            "functionSelector": "eb9019d4",
            "id": 5772,
            "implemented": true,
            "kind": "function",
            "modifiers": [],
            "name": "getVotes",
            "nameLocation": "600:8:23",
            "nodeType": "FunctionDefinition",
            "overrides": {
              "id": 5761,
              "nodeType": "OverrideSpecifier",
              "overrides": [],
              "src": "667:8:23"
            },
            "parameters": {
              "id": 5760,
              "nodeType": "ParameterList",
              "parameters": [
                {
                  "constant": false,
                  "id": 5757,
                  "mutability": "mutable",
                  "name": "account",
                  "nameLocation": "617:7:23",
                  "nodeType": "VariableDeclaration",
                  "scope": 5772,
                  "src": "609:15:23",
                  "stateVariable": false,
                  "storageLocation": "default",
                  "typeDescriptions": {
                    "typeIdentifier": "t_address",
                    "typeString": "address"
                  },
                  "typeName": {
                    "id": 5756,
                    "name": "address",
                    "nodeType": "ElementaryTypeName",
                    "src": "609:7:23",
                    "stateMutability": "nonpayable",
                    "typeDescriptions": {
                      "typeIdentifier": "t_address",
                      "typeString": "address"
                    }
                  },
                  "visibility": "internal"
                },
                {
                  "constant": false,
                  "id": 5759,
                  "mutability": "mutable",
                  "name": "blockNumber",
                  "nameLocation": "634:11:23",
                  "nodeType": "VariableDeclaration",
                  "scope": 5772,
                  "src": "626:19:23",
                  "stateVariable": false,
                  "storageLocation": "default",
                  "typeDescriptions": {
                    "typeIdentifier": "t_uint256",
                    "typeString": "uint256"
                  },
                  "typeName": {
                    "id": 5758,
                    "name": "uint256",
                    "nodeType": "ElementaryTypeName",
                    "src": "626:7:23",
                    "typeDescriptions": {
                      "typeIdentifier": "t_uint256",
                      "typeString": "uint256"
                    }
                  },
                  "visibility": "internal"
                }
              ],
              "src": "608:38:23"
            },
            "returnParameters": {
              "id": 5764,
              "nodeType": "ParameterList",
              "parameters": [
                {
                  "constant": false,
                  "id": 5763,
                  "mutability": "mutable",
                  "name": "",
                  "nameLocation": "-1:-1:-1",
                  "nodeType": "VariableDeclaration",
                  "scope": 5772,
                  "src": "685:7:23",
                  "stateVariable": false,
                  "storageLocation": "default",
                  "typeDescriptions": {
                    "typeIdentifier": "t_uint256",
                    "typeString": "uint256"
                  },
                  "typeName": {
                    "id": 5762,
                    "name": "uint256",
                    "nodeType": "ElementaryTypeName",
                    "src": "685:7:23",
                    "typeDescriptions": {
                      "typeIdentifier": "t_uint256",
                      "typeString": "uint256"
                    }
                  },
                  "visibility": "internal"
                }
              ],
              "src": "684:9:23"
            },
            "scope": 5773,
            "src": "591:167:23",
            "stateMutability": "view",
            "virtual": true,
            "visibility": "public"
          }
        ],
        "scope": 5774,
        "src": "302:458:23"
      }
    ],
    "src": "33:728:23"
  },
  "compiler": {
    "name": "solc",
    "version": "0.8.2+commit.661d1103.Emscripten.clang"
  },
  "networks": {},
  "schemaVersion": "3.4.2",
  "updatedAt": "2021-08-10T13:44:20.220Z",
  "devdoc": {
    "details": "Extension of {Governor} for voting weight extraction from an {ERC20Votes} token. _Available since v4.3._",
    "kind": "dev",
    "methods": {
      "COUNTING_MODE()": {
        "details": "A description of the possible `support` values for {castVote} and the way these votes are counted, meant to be consumed by UIs to show correct vote options and interpret the results. The string is a URL-encoded sequence of key-value pairs that each describe one aspect, for example `support=bravo&quorum=for,abstain`. There are 2 standard keys: `support` and `quorum`. - `support=bravo` refers to the vote options 0 = For, 1 = Against, 2 = Abstain, as in `GovernorBravo`. - `quorum=bravo` means that only For votes are counted towards quorum. - `quorum=for,abstain` means that both For and Abstain votes are counted towards quorum. NOTE: The string can be decoded by the standard https://developer.mozilla.org/en-US/docs/Web/API/URLSearchParams[`URLSearchParams`] JavaScript class."
      },
      "castVote(uint256,uint8)": {
        "details": "See {IGovernor-castVote}."
      },
      "castVoteBySig(uint256,uint8,uint8,bytes32,bytes32)": {
        "details": "See {IGovernor-castVoteBySig}."
      },
      "castVoteWithReason(uint256,uint8,string)": {
        "details": "See {IGovernor-castVoteWithReason}."
      },
      "execute(address[],uint256[],bytes[],bytes32)": {
        "details": "See {IGovernor-execute}."
      },
      "hasVoted(uint256,address)": {
        "details": "Returns weither `account` has casted a vote on `proposalId`."
      },
      "hashProposal(address[],uint256[],bytes[],bytes32)": {
        "details": "See {IGovernor-hashProposal}. The proposal id is produced by hashing the RLC encoded `targets` array, the `values` array, the `calldatas` array and the descriptionHash (bytes32 which itself is the keccak256 hash of the description string). This proposal id can be produced from the proposal data which is part of the {ProposalCreated} event. It can even be computed in advance, before the proposal is submitted. Note that the chainId and the governor address are not part of the proposal id computation. Consequently, the same proposal (with same operation and same description) will have the same id if submitted on multiple governors accross multiple networks. This also means that in order to execute the same operation twice (on the same governor) the proposer will have to change the description in order to avoid proposal id conflicts."
      },
      "name()": {
        "details": "See {IGovernor-name}."
      },
      "proposalDeadline(uint256)": {
        "details": "See {IGovernor-proposalDeadline}."
      },
      "proposalSnapshot(uint256)": {
        "details": "See {IGovernor-proposalSnapshot}."
      },
      "propose(address[],uint256[],bytes[],string)": {
        "details": "See {IGovernor-propose}."
      },
      "quorum(uint256)": {
        "details": "Minimum number of casted voted requiered for a proposal to be successful. Note: The `blockNumber` parameter corresponds to the snaphot used for counting vote. This allows to scale the quroum depending on values such as the totalSupply of a token at this block (see {ERC20Votes})."
      },
      "state(uint256)": {
        "details": "See {IGovernor-state}."
      },
      "supportsInterface(bytes4)": {
        "details": "See {IERC165-supportsInterface}."
      },
      "version()": {
        "details": "See {IGovernor-version}."
      },
      "votingDelay()": {
        "details": "delay, in number of block, between the proposal is created and the vote starts. This can be increassed to leave time for users to buy voting power, of delegate it, before the voting of a proposal starts."
      },
      "votingPeriod()": {
        "details": "delay, in number of blocks, between the vote start and vote ends. Note: the {votingDelay} can delay the start of the vote. This must be considered when setting the voting duration compared to the voting delay."
      }
    },
    "version": 1
  },
  "userdoc": {
    "kind": "user",
    "methods": {
      "COUNTING_MODE()": {
        "notice": "module:voting"
      },
      "getVotes(address,uint256)": {
        "notice": "Read the voting weight from the token's built in snapshot mechanism (see {IGovernor-getVotes})."
      },
      "hasVoted(uint256,address)": {
        "notice": "module:voting"
      },
      "quorum(uint256)": {
        "notice": "module:user-config"
      },
      "votingDelay()": {
        "notice": "module:user-config"
      },
      "votingPeriod()": {
        "notice": "module:user-config"
      }
    },
    "version": 1
  }
}