{
  "contractName": "IERC1820Implementer",
  "abi": [
    {
      "inputs": [
        {
          "internalType": "bytes32",
          "name": "interfaceHash",
          "type": "bytes32"
        },
        {
          "internalType": "address",
          "name": "account",
          "type": "address"
        }
      ],
      "name": "canImplementInterfaceForAddress",
      "outputs": [
        {
          "internalType": "bytes32",
          "name": "",
          "type": "bytes32"
        }
      ],
      "stateMutability": "view",
      "type": "function"
    }
  ],
  "metadata": "{\"compiler\":{\"version\":\"0.8.2+commit.661d1103\"},\"language\":\"Solidity\",\"output\":{\"abi\":[{\"inputs\":[{\"internalType\":\"bytes32\",\"name\":\"interfaceHash\",\"type\":\"bytes32\"},{\"internalType\":\"address\",\"name\":\"account\",\"type\":\"address\"}],\"name\":\"canImplementInterfaceForAddress\",\"outputs\":[{\"internalType\":\"bytes32\",\"name\":\"\",\"type\":\"bytes32\"}],\"stateMutability\":\"view\",\"type\":\"function\"}],\"devdoc\":{\"details\":\"Interface for an ERC1820 implementer, as defined in the https://eips.ethereum.org/EIPS/eip-1820#interface-implementation-erc1820implementerinterface[EIP]. Used by contracts that will be registered as implementers in the {IERC1820Registry}.\",\"kind\":\"dev\",\"methods\":{\"canImplementInterfaceForAddress(bytes32,address)\":{\"details\":\"Returns a special value (`ERC1820_ACCEPT_MAGIC`) if this contract implements `interfaceHash` for `account`. See {IERC1820Registry-setInterfaceImplementer}.\"}},\"version\":1},\"userdoc\":{\"kind\":\"user\",\"methods\":{},\"version\":1}},\"settings\":{\"compilationTarget\":{\"project:/contracts/openzeppelin/contracts/utils/introspection/IERC1820Implementer.sol\":\"IERC1820Implementer\"},\"evmVersion\":\"istanbul\",\"libraries\":{},\"metadata\":{\"bytecodeHash\":\"ipfs\"},\"optimizer\":{\"enabled\":false,\"runs\":200},\"remappings\":[]},\"sources\":{\"project:/contracts/openzeppelin/contracts/utils/introspection/IERC1820Implementer.sol\":{\"keccak256\":\"0xd658a25ce73a588bba55fa518ea79b3a581f14c411fb44a38e78f87e3a09ffcb\",\"license\":\"MIT\",\"urls\":[\"bzz-raw://791297362508954c107c100110591cdd6b973a7257262aaf2630917552672a29\",\"dweb:/ipfs/QmWqXwQa6S9xQXx5oy5TB3N7TmyedVy3sJnfTLWP4jCsbp\"]}},\"version\":1}",
  "bytecode": "0x",
  "deployedBytecode": "0x",
  "immutableReferences": {},
  "generatedSources": [],
  "deployedGeneratedSources": [],
  "sourceMap": "",
  "deployedSourceMap": "",
  "source": "// SPDX-License-Identifier: MIT\n\npragma solidity ^0.8.0;\n\n/**\n * @dev Interface for an ERC1820 implementer, as defined in the\n * https://eips.ethereum.org/EIPS/eip-1820#interface-implementation-erc1820implementerinterface[EIP].\n * Used by contracts that will be registered as implementers in the\n * {IERC1820Registry}.\n */\ninterface IERC1820Implementer {\n    /**\n     * @dev Returns a special value (`ERC1820_ACCEPT_MAGIC`) if this contract\n     * implements `interfaceHash` for `account`.\n     *\n     * See {IERC1820Registry-setInterfaceImplementer}.\n     */\n    function canImplementInterfaceForAddress(bytes32 interfaceHash, address account) external view returns (bytes32);\n}\n",
  "sourcePath": "/home/sushant/Documents/blockchain_work/EatTheBlock/ecomapp2/contracts/openzeppelin/contracts/utils/introspection/IERC1820Implementer.sol",
  "ast": {
    "absolutePath": "project:/contracts/openzeppelin/contracts/utils/introspection/IERC1820Implementer.sol",
    "exportedSymbols": {
      "IERC1820Implementer": [
        25770
      ]
    },
    "id": 25771,
    "license": "MIT",
    "nodeType": "SourceUnit",
    "nodes": [
      {
        "id": 25758,
        "literals": [
          "solidity",
          "^",
          "0.8",
          ".0"
        ],
        "nodeType": "PragmaDirective",
        "src": "33:23:214"
      },
      {
        "abstract": false,
        "baseContracts": [],
        "contractDependencies": [],
        "contractKind": "interface",
        "documentation": {
          "id": 25759,
          "nodeType": "StructuredDocumentation",
          "src": "58:264:214",
          "text": " @dev Interface for an ERC1820 implementer, as defined in the\n https://eips.ethereum.org/EIPS/eip-1820#interface-implementation-erc1820implementerinterface[EIP].\n Used by contracts that will be registered as implementers in the\n {IERC1820Registry}."
        },
        "fullyImplemented": false,
        "id": 25770,
        "linearizedBaseContracts": [
          25770
        ],
        "name": "IERC1820Implementer",
        "nameLocation": "333:19:214",
        "nodeType": "ContractDefinition",
        "nodes": [
          {
            "documentation": {
              "id": 25760,
              "nodeType": "StructuredDocumentation",
              "src": "359:200:214",
              "text": " @dev Returns a special value (`ERC1820_ACCEPT_MAGIC`) if this contract\n implements `interfaceHash` for `account`.\n See {IERC1820Registry-setInterfaceImplementer}."
            },
            "functionSelector": "249cb3fa",
            "id": 25769,
            "implemented": false,
            "kind": "function",
            "modifiers": [],
            "name": "canImplementInterfaceForAddress",
            "nameLocation": "573:31:214",
            "nodeType": "FunctionDefinition",
            "parameters": {
              "id": 25765,
              "nodeType": "ParameterList",
              "parameters": [
                {
                  "constant": false,
                  "id": 25762,
                  "mutability": "mutable",
                  "name": "interfaceHash",
                  "nameLocation": "613:13:214",
                  "nodeType": "VariableDeclaration",
                  "scope": 25769,
                  "src": "605:21:214",
                  "stateVariable": false,
                  "storageLocation": "default",
                  "typeDescriptions": {
                    "typeIdentifier": "t_bytes32",
                    "typeString": "bytes32"
                  },
                  "typeName": {
                    "id": 25761,
                    "name": "bytes32",
                    "nodeType": "ElementaryTypeName",
                    "src": "605:7:214",
                    "typeDescriptions": {
                      "typeIdentifier": "t_bytes32",
                      "typeString": "bytes32"
                    }
                  },
                  "visibility": "internal"
                },
                {
                  "constant": false,
                  "id": 25764,
                  "mutability": "mutable",
                  "name": "account",
                  "nameLocation": "636:7:214",
                  "nodeType": "VariableDeclaration",
                  "scope": 25769,
                  "src": "628:15:214",
                  "stateVariable": false,
                  "storageLocation": "default",
                  "typeDescriptions": {
                    "typeIdentifier": "t_address",
                    "typeString": "address"
                  },
                  "typeName": {
                    "id": 25763,
                    "name": "address",
                    "nodeType": "ElementaryTypeName",
                    "src": "628:7:214",
                    "stateMutability": "nonpayable",
                    "typeDescriptions": {
                      "typeIdentifier": "t_address",
                      "typeString": "address"
                    }
                  },
                  "visibility": "internal"
                }
              ],
              "src": "604:40:214"
            },
            "returnParameters": {
              "id": 25768,
              "nodeType": "ParameterList",
              "parameters": [
                {
                  "constant": false,
                  "id": 25767,
                  "mutability": "mutable",
                  "name": "",
                  "nameLocation": "-1:-1:-1",
                  "nodeType": "VariableDeclaration",
                  "scope": 25769,
                  "src": "668:7:214",
                  "stateVariable": false,
                  "storageLocation": "default",
                  "typeDescriptions": {
                    "typeIdentifier": "t_bytes32",
                    "typeString": "bytes32"
                  },
                  "typeName": {
                    "id": 25766,
                    "name": "bytes32",
                    "nodeType": "ElementaryTypeName",
                    "src": "668:7:214",
                    "typeDescriptions": {
                      "typeIdentifier": "t_bytes32",
                      "typeString": "bytes32"
                    }
                  },
                  "visibility": "internal"
                }
              ],
              "src": "667:9:214"
            },
            "scope": 25770,
            "src": "564:113:214",
            "stateMutability": "view",
            "virtual": false,
            "visibility": "external"
          }
        ],
        "scope": 25771,
        "src": "323:356:214"
      }
    ],
    "src": "33:647:214"
  },
  "legacyAST": {
    "absolutePath": "project:/contracts/openzeppelin/contracts/utils/introspection/IERC1820Implementer.sol",
    "exportedSymbols": {
      "IERC1820Implementer": [
        25770
      ]
    },
    "id": 25771,
    "license": "MIT",
    "nodeType": "SourceUnit",
    "nodes": [
      {
        "id": 25758,
        "literals": [
          "solidity",
          "^",
          "0.8",
          ".0"
        ],
        "nodeType": "PragmaDirective",
        "src": "33:23:214"
      },
      {
        "abstract": false,
        "baseContracts": [],
        "contractDependencies": [],
        "contractKind": "interface",
        "documentation": {
          "id": 25759,
          "nodeType": "StructuredDocumentation",
          "src": "58:264:214",
          "text": " @dev Interface for an ERC1820 implementer, as defined in the\n https://eips.ethereum.org/EIPS/eip-1820#interface-implementation-erc1820implementerinterface[EIP].\n Used by contracts that will be registered as implementers in the\n {IERC1820Registry}."
        },
        "fullyImplemented": false,
        "id": 25770,
        "linearizedBaseContracts": [
          25770
        ],
        "name": "IERC1820Implementer",
        "nameLocation": "333:19:214",
        "nodeType": "ContractDefinition",
        "nodes": [
          {
            "documentation": {
              "id": 25760,
              "nodeType": "StructuredDocumentation",
              "src": "359:200:214",
              "text": " @dev Returns a special value (`ERC1820_ACCEPT_MAGIC`) if this contract\n implements `interfaceHash` for `account`.\n See {IERC1820Registry-setInterfaceImplementer}."
            },
            "functionSelector": "249cb3fa",
            "id": 25769,
            "implemented": false,
            "kind": "function",
            "modifiers": [],
            "name": "canImplementInterfaceForAddress",
            "nameLocation": "573:31:214",
            "nodeType": "FunctionDefinition",
            "parameters": {
              "id": 25765,
              "nodeType": "ParameterList",
              "parameters": [
                {
                  "constant": false,
                  "id": 25762,
                  "mutability": "mutable",
                  "name": "interfaceHash",
                  "nameLocation": "613:13:214",
                  "nodeType": "VariableDeclaration",
                  "scope": 25769,
                  "src": "605:21:214",
                  "stateVariable": false,
                  "storageLocation": "default",
                  "typeDescriptions": {
                    "typeIdentifier": "t_bytes32",
                    "typeString": "bytes32"
                  },
                  "typeName": {
                    "id": 25761,
                    "name": "bytes32",
                    "nodeType": "ElementaryTypeName",
                    "src": "605:7:214",
                    "typeDescriptions": {
                      "typeIdentifier": "t_bytes32",
                      "typeString": "bytes32"
                    }
                  },
                  "visibility": "internal"
                },
                {
                  "constant": false,
                  "id": 25764,
                  "mutability": "mutable",
                  "name": "account",
                  "nameLocation": "636:7:214",
                  "nodeType": "VariableDeclaration",
                  "scope": 25769,
                  "src": "628:15:214",
                  "stateVariable": false,
                  "storageLocation": "default",
                  "typeDescriptions": {
                    "typeIdentifier": "t_address",
                    "typeString": "address"
                  },
                  "typeName": {
                    "id": 25763,
                    "name": "address",
                    "nodeType": "ElementaryTypeName",
                    "src": "628:7:214",
                    "stateMutability": "nonpayable",
                    "typeDescriptions": {
                      "typeIdentifier": "t_address",
                      "typeString": "address"
                    }
                  },
                  "visibility": "internal"
                }
              ],
              "src": "604:40:214"
            },
            "returnParameters": {
              "id": 25768,
              "nodeType": "ParameterList",
              "parameters": [
                {
                  "constant": false,
                  "id": 25767,
                  "mutability": "mutable",
                  "name": "",
                  "nameLocation": "-1:-1:-1",
                  "nodeType": "VariableDeclaration",
                  "scope": 25769,
                  "src": "668:7:214",
                  "stateVariable": false,
                  "storageLocation": "default",
                  "typeDescriptions": {
                    "typeIdentifier": "t_bytes32",
                    "typeString": "bytes32"
                  },
                  "typeName": {
                    "id": 25766,
                    "name": "bytes32",
                    "nodeType": "ElementaryTypeName",
                    "src": "668:7:214",
                    "typeDescriptions": {
                      "typeIdentifier": "t_bytes32",
                      "typeString": "bytes32"
                    }
                  },
                  "visibility": "internal"
                }
              ],
              "src": "667:9:214"
            },
            "scope": 25770,
            "src": "564:113:214",
            "stateMutability": "view",
            "virtual": false,
            "visibility": "external"
          }
        ],
        "scope": 25771,
        "src": "323:356:214"
      }
    ],
    "src": "33:647:214"
  },
  "compiler": {
    "name": "solc",
    "version": "0.8.2+commit.661d1103.Emscripten.clang"
  },
  "networks": {},
  "schemaVersion": "3.4.2",
  "updatedAt": "2021-08-10T13:44:21.384Z",
  "devdoc": {
    "details": "Interface for an ERC1820 implementer, as defined in the https://eips.ethereum.org/EIPS/eip-1820#interface-implementation-erc1820implementerinterface[EIP]. Used by contracts that will be registered as implementers in the {IERC1820Registry}.",
    "kind": "dev",
    "methods": {
      "canImplementInterfaceForAddress(bytes32,address)": {
        "details": "Returns a special value (`ERC1820_ACCEPT_MAGIC`) if this contract implements `interfaceHash` for `account`. See {IERC1820Registry-setInterfaceImplementer}."
      }
    },
    "version": 1
  },
  "userdoc": {
    "kind": "user",
    "methods": {},
    "version": 1
  }
}